[Event "2019-grand-chess-tour-tata-steel"]
[White "Ding, Liren"]
[Black "Nepomniachtchi, Ian"]
[WhiteFideId "8603677"]
[BlackFideId "4168119"]
[Result "1/2-1/2"]
[Round "16"]
[Date "Mon Nov 25 2019"]
[WhiteClock "0:00:07"]
[BlackClock "0:00:01"]


1. Nf3  c5 2. c4  Nc6 3. Nc3  g6 4. e3  Nf6 5. d4  cxd4 6. exd4  d5 7. cxd5  Nxd5 8. Qb3  e6 9. Bb5  Bg7 10. O-O  O-O 11. Bxc6  bxc6 12. Re1  Qc7 13. h3  Rb8 14. Qd1  Ne7 15. Ne5  c5 16. Bf4  cxd4 17. Nxg6  e5 18. Nxe5  dxc3 19. Ng6  cxb2 20. Rb1  Nxg6 21. Bxc7  Rb7 22. Bd6  Rd8 23. Qc2  Be6 24. Ba3  Rdb8 25. Rxe6  fxe6 26. Qe4  Rb6 27. Bc5  Ra6 28. Bd4  Bxd4 29. Qxd4  Rxa2 30. Kh2  Kf7 31. Qc4  Ra1 32. Qc7+  Ne7 33. Qf4+  Kg6 34. Qxb8  Rxb1 35. Qb3  Kf7 36. Qc2  Rc1 37. Qxb2  Rc5 38. Qd4  Ra5 39. g4  h5 40. Kg3  hxg4 41. hxg4  a6 42. f3  Rd5 43. Qf4+  Kg7 44. Qc7  Kf7 45. f4  a5 46. Kh4  Ke8 47. Qb8+  Kf7 48. Qa7  Ke8 49. g5  Rf5 50. Kh5  Kf7 51. Kh6  Rxf4 52. Kh5  Rf5 1/2-1/2


[Event "81st Tata Steel GpA"]
[Site "Wijk aan Zee NED"]
[Date "2019.01.20"]
[Round "8.4"]
[White "Ding Liren"]
[Black "Nepomniachtchi,I"]
[Result "1/2-1/2"]
[BlackElo "2763"]
[BlackFideId "4168119"]
[BlackTitle "GM"]
[ECO "E60"]
[EventDate "2019.01.12"]
[Opening "King's Indian, 3.Nf3"]
[WhiteElo "2813"]
[WhiteFideId "8603677"]
[WhiteTitle "GM"]

1. d4 Nf6 2. c4 g6 3. Nf3 Bg7 4. g3 c6 5. Bg2 d5 6. Qb3 O-O 7. O-O Qb6
8. Nc3 Rd8 9. Bd2 dxc4 10. Qxc4 Be6 11. Qa4 Bf5 12. Rfe1 Ne4 13. Nxe4 Bxe4
14. Ba5 Qa6 15. Qa3 Re8 16. Bf1 c5 17. dxc5 Bxb2
1/2-1/2


[Event "Cote d'Ivoire Rapid 2019"]
[Site "Abidjan CIV"]
[Date "2019.05.09"]
[Round "5.5"]
[White "Ding Liren"]
[Black "Nepomniachtchi,I"]
[Result "1-0"]
[WhiteTitle "GM"]
[BlackTitle "GM"]
[WhiteElo "2805"]
[BlackElo "2773"]
[ECO "E60"]
[Opening "King's Indian defence"]
[WhiteFideId "8603677"]
[BlackFideId "4168119"]
[EventDate "2019.05.08"]

1. d4 Nf6 2. c4 g6 3. f3 c5 4. d5 e6 5. e4 d6 6. Nc3 Bg7 7. Nge2 exd5 8. cxd5 a6
9. a4 O-O 10. Ng3 Nbd7 11. Be2 Ne8 12. O-O Rb8 13. Re1 Nc7 14. Bf4 Qe7 15. Qd2
Re8 16. a5 b5 17. axb6 Rxb6 18. Ra5 Rb4 19. Nf1 Nb5 20. Nxb5 axb5 21. Rxb5 Rd4
22. Qa5 f5 23. Qc7 Be5 24. Bxe5 Qxe5 25. Ra5 Rb4 26. Ra8 Nb6 27. Raa1 fxe4 28.
fxe4 Rxe4 29. Qxb6 Rxe2 30. Rxe2 Qxe2 31. Qxd6 Qxb2 32. Rd1 c4 33. Qc6 Rf8 34.
Qxc4 Qf2+ 35. Kh1 Bg4 36. d6+ Rf7 37. Rb1 Be2 38. Qc8+ Rf8 39. Qe6+ Kg7 40. Qe5+
Kg8 41. Ne3 Bf3 42. h3 Bc6 43. Nd5 Re8 44. Nf6+ Kf8 45. Nxh7+ Kg8 46. Nf6+ Kf8
47. Qg5 Re6 48. d7 Re1+ 49. Rxe1 Qxe1+ 50. Kh2 Ke7 51. Qc5+ 1-0


[Event "Cote d'Ivoire Blitz 2019"]
[Site "Abidjan CIV"]
[Date "2019.05.11"]
[Round "1.4"]
[White "Ding Liren"]
[Black "Nepomniachtchi,I"]
[Result "0-1"]
[WhiteTitle "GM"]
[BlackTitle "GM"]
[WhiteElo "2805"]
[BlackElo "2773"]
[ECO "A20"]
[Opening "English opening"]
[WhiteFideId "8603677"]
[BlackFideId "4168119"]
[EventDate "2019.05.11"]

1. c4 e5 2. g3 Nc6 3. Bg2 h5 4. h3 Bc5 5. Nc3 d6 6. e3 Be6 7. b3 Nge7 8. Nge2 d5
9. d4 exd4 10. exd4 Bb4 11. O-O Bxc3 12. Nxc3 Qd7 13. cxd5 Nxd5 14. Nxd5 Bxd5
15. Re1+ Kf8 16. Be3 Rd8 17. Rc1 Bxg2 18. Kxg2 Ne7 19. d5 Nxd5 20. Qf3 c6 21. b4
a6 22. a4 f6 23. b5 axb5 24. axb5 Kf7 25. bxc6 bxc6 26. Rc4 Rde8 27. Bd2 Rxe1
28. Bxe1 g6 29. Bc3 Re8 30. Bd4 Qe6 31. Ra4 Re7 32. Ra6 Qe4 33. Bc5 Qxf3+ 34.
Kxf3 Rc7 35. g4 h4 36. Ke4 Ke6 37. f4 f5+ 38. Kf3 Nf6 39. Bf2 fxg4+ 40. hxg4 h3
41. Ra1 Rb7 42. Bd4 0-1


[Event "Croatia GCT 2019"]
[Site "Zagreb CRO"]
[Date "2019.07.01"]
[Round "6.1"]
[White "Ding Liren"]
[Black "Nepomniachtchi,I"]
[Result "1-0"]
[WhiteTitle "GM"]
[BlackTitle "GM"]
[WhiteElo "2805"]
[BlackElo "2775"]
[ECO "A20"]
[Opening "English opening"]
[WhiteFideId "8603677"]
[BlackFideId "4168119"]
[EventDate "2019.06.26"]

1. c4 e5 2. g3 Nf6 3. Bg2 d5 4. cxd5 Nxd5 5. Nf3 Nc6 6. O-O Be7 7. d4 e4 8. Ne5
f5 9. Nxc6 bxc6 10. Qc2 Nb4 11. Qa4 Bd7 12. a3 Nd5 13. Nc3 Bd6 14. f3 exf3 15.
Bxf3 Nb6 16. Qb3 Qf6 17. Be3 Qg6 18. Bf2 h5 19. e4 h4 20. exf5 Qxf5 21. Rae1+
Kd8 22. Ne4 Qg6 23. Nxd6 cxd6 24. d5 c5 25. a4 Bxa4 26. Qa3 Re8 27. b4 Rc8 28.
bxc5 Rxe1 29. Rxe1 hxg3 30. hxg3 dxc5 31. Kg2 Qc2 32. Qe3 Rc7 33. Qe6 Rd7 34. d6
Kc8 35. Rh1 1-0


[Event "chess.com Speed 2019"]
[Site "chess.com INT"]
[Date "2019.11.18"]
[Round "2.4"]
[White "Ding Liren"]
[Black "Nepomniachtchi,I"]
[Result "0-1"]
[BlackElo "2776"]
[BlackFideId "4168119"]
[BlackTitle "GM"]
[ECO "E60"]
[EventDate "2019.09.02"]
[Opening "King's Indian defence"]
[WhiteElo "2811"]
[WhiteFideId "8603677"]
[WhiteTitle "GM"]

1. d4 Nf6 2. c4 g6 3. f3 c5 4. d5 e6 5. e4 d6 6. Nc3 exd5 7. cxd5 Bg7
8. Nge2 O-O 9. Ng3 a6 10. a4 Nbd7 11. Be2 Ne8 12. O-O Rb8 13. Re1 Bd4+
14. Kh1 Qh4 15. Rf1 Ne5 16. f4 Ng4 17. Bxg4 Bxg4 18. Qe1 Nf6 19. e5 Nd7
20. Nce4 dxe5 21. f5 f6 22. Be3 Kh8 23. Bxd4 cxd4 24. Rc1 gxf5 25. Nxf5 Qxe1
26. Rcxe1 Bxf5 27. Rxf5 Rbc8 28. d6 Kg7 29. g4 Kf7 30. Ng5+ Kg6 31. Ne6 Rh8
32. Nc7 h5 33. Nd5 hxg4 34. Ne7+ Kf7 35. Nxc8 Rxc8 36. Kg2 d3 37. Rf2 Rc4
38. Rd2 Rd4 39. Kf2 f5 40. Rc1 f4 41. Rc7 Ke6 42. Rxb7 e4
0-1


[Event "chess.com Speed 2019"]
[Site "chess.com INT"]
[Date "2019.11.18"]
[Round "2.10"]
[White "Ding Liren"]
[Black "Nepomniachtchi,I"]
[Result "1/2-1/2"]
[BlackElo "2776"]
[BlackFideId "4168119"]
[BlackTitle "GM"]
[ECO "D85"]
[EventDate "2019.09.02"]
[Opening "Gruenfeld"]
[Variation "modern exchange variation"]
[WhiteElo "2811"]
[WhiteFideId "8603677"]
[WhiteTitle "GM"]

1. d4 Nf6 2. c4 g6 3. Nc3 d5 4. cxd5 Nxd5 5. e4 Nxc3 6. bxc3 Bg7 7. Nf3 c5
8. Be3 O-O 9. Rc1 Qa5 10. Qd2 Nd7 11. Bd3 e5 12. Bh6 cxd4 13. Bxg7 Kxg7
14. cxd4 Qxd2+ 15. Kxd2 exd4 16. Nxd4 b6 17. Ke3 Nc5 18. Rhd1 Bb7 19. f3 Rad8
20. Bb5 Rc8 21. Nb3 Nxb3 22. axb3 Rxc1 23. Rxc1 Rc8
1/2-1/2


[Event "chess.com Speed 2019"]
[Site "chess.com INT"]
[Date "2019.11.18"]
[Round "2.2"]
[White "Ding Liren"]
[Black "Nepomniachtchi,I"]
[Result "0-1"]
[BlackElo "2776"]
[BlackFideId "4168119"]
[BlackTitle "GM"]
[ECO "E60"]
[EventDate "2019.09.02"]
[Opening "King's Indian defence"]
[WhiteElo "2811"]
[WhiteFideId "8603677"]
[WhiteTitle "GM"]

1. d4 Nf6 2. c4 g6 3. f3 c5 4. dxc5 e6 5. Be3 Na6 6. Nc3 Nxc5 7. Nh3 b6
8. Bd4 Bg7 9. e4 O-O 10. e5 Ne8 11. b4 Na6 12. a3 Nb8 13. Bd3 Nc6 14. Be4 Qc7
15. Bxc6 Qxc6 16. O-O d6 17. exd6 e5 18. Nd5 Qxd6 19. Bb2 Bxh3 20. gxh3 Nf6
21. Re1 Rfe8 22. Qd3 Nxd5 23. Qxd5 Qf6 24. Rad1 Rac8 25. Qe4 Qe6 26. Rd5 Qxh3
27. Red1 Qe6 28. Bc1 Qc6 29. c5 bxc5 30. Rxc5 Qe6 31. Be3 a6 32. Rdc1 h5
33. Qc4 Rxc5 34. bxc5 Qc6 35. Qe4 Rc8 36. Qxc6 Rxc6 37. Kf2 Bf8 38. Ke2 f5
39. Kd3 Kf7 40. Kc4 Ke6 41. Rb1 f4 42. Bf2 g5 43. h3 e4 44. fxe4 g4
45. hxg4 hxg4 46. Bd4 g3 47. Rf1 Bd6 48. e5 Bxc5 49. Bxc5 g2 50. Rg1 f3
51. Kb4 Rxc5 52. Kxc5 f2 53. Rxg2 f1=Q
0-1


[Event "chess.com Speed 2019"]
[Site "chess.com INT"]
[Date "2019.11.18"]
[Round "2.8"]
[White "Ding Liren"]
[Black "Nepomniachtchi,I"]
[Result "0-1"]
[BlackElo "2776"]
[BlackFideId "4168119"]
[BlackTitle "GM"]
[ECO "A20"]
[EventDate "2019.09.02"]
[Opening "English opening"]
[WhiteElo "2811"]
[WhiteFideId "8603677"]
[WhiteTitle "GM"]

1. c4 e5 2. g3 Nf6 3. Bg2 d5 4. cxd5 Nxd5 5. Nf3 Nc6 6. O-O Nb6 7. b3 Be6
8. Bb2 f6 9. Na3 Qd7 10. Nc2 Bh3 11. d4 Bxg2 12. Kxg2 e4 13. Nd2 f5 14. f3 exf3+
15. Nxf3 O-O-O 16. Qd3 Be7 17. Rad1 Bf6 18. Ne3 g6 19. Nc4 Rhe8 20. Nce5 Bxe5
21. dxe5 Qe7 22. Qc2 Nd5 23. Qc1 Qb4 24. Bd4 Qb5 25. Kf2 Ndb4 26. a4 Qd5
27. Qb1 Qe4 28. e3 Qxb1 29. Rxb1 Nd3+ 30. Ke2 Ndxe5 31. Bxe5 Nxe5 32. Nxe5 Rxe5
33. Rfd1 a5 34. Rxd8+ Kxd8 35. Rd1+ Ke7 36. Rd4 Re4 37. Rd5 b6 38. Kd2 h5
39. Rd3 h4 40. Rc3 c5 41. Ke2 hxg3 42. hxg3 Rb4 43. Rd3 Ke6 44. Kf3 c4
45. bxc4 Rxc4 46. Ra3 g5
0-1


[Event "chess.com Speed 2019"]
[Site "chess.com INT"]
[Date "2019.11.18"]
[Round "2.6"]
[White "Ding Liren"]
[Black "Nepomniachtchi,I"]
[Result "1/2-1/2"]
[BlackElo "2776"]
[BlackFideId "4168119"]
[BlackTitle "GM"]
[ECO "A35"]
[EventDate "2019.09.02"]
[Opening "English"]
[Variation "symmetrical, four knights system"]
[WhiteElo "2811"]
[WhiteFideId "8603677"]
[WhiteTitle "GM"]

1. Nf3 Nf6 2. c4 c5 3. Nc3 Nc6 4. g3 d5 5. d4 e6 6. cxd5 Nxd5 7. Bg2 cxd4
8. Nxd4 Nxc3 9. bxc3 Nxd4 10. Qxd4 Qxd4 11. cxd4 Bd6 12. a4 Rb8 13. a5 Bd7
14. Be3 a6 15. d5 Bb4+ 16. Bd2 Bxd2+ 17. Kxd2 exd5 18. Bxd5 Bc6 19. Bxc6+ bxc6
20. Rhc1 Kd7 21. Rc2 Rhe8 22. Ra4 Re6 23. Rd4+ Rd6 24. Kc3 Rb5 25. Rcd2 Rxd4
26. Rxd4+ Ke6 27. Re4+ Kd6 28. Rd4+ Ke6 29. Re4+ Kf6 30. Rf4+ Ke6 31. Re4+
1/2-1/2


[Event "chess.com Speed 2019"]
[Site "chess.com INT"]
[Date "2019.11.18"]
[Round "2.12"]
[White "Ding Liren"]
[Black "Nepomniachtchi,I"]
[Result "1/2-1/2"]
[BlackElo "2776"]
[BlackFideId "4168119"]
[BlackTitle "GM"]
[ECO "A15"]
[EventDate "2019.09.02"]
[Opening "English opening"]
[WhiteElo "2811"]
[WhiteFideId "8603677"]
[WhiteTitle "GM"]

1. Nf3 Nf6 2. c4 c5 3. g3 Nc6 4. Bg2 d5 5. cxd5 Nxd5 6. d4 cxd4 7. Nxd4 Ndb4
8. Nxc6 Qxd1+ 9. Kxd1 Nxc6 10. Nc3 Bd7 11. Be3 g6 12. Rc1 Bg7 13. Ke1 O-O
14. f4 e5 15. Kf2 exf4 16. gxf4 Be6 17. Rhd1 Rfd8 18. Rxd8+ Rxd8 19. b3 Bxc3
20. Rxc3 Bd5 21. Bf1 f5 22. a3 Kf7 23. b4 a6 24. Bb6 Rd7 25. e3 Be4 26. Bc4+ Kf6
27. Ke1 h6 28. h4 g5 29. hxg5+ hxg5 30. fxg5+ Kxg5 31. Be2 Ne5 32. Bc7 Kf6
33. Bxe5+
1/2-1/2


[Event "chess.com Speed 2019"]
[Site "chess.com INT"]
[Date "2019.11.18"]
[Round "2.18"]
[White "Ding Liren"]
[Black "Nepomniachtchi,I"]
[Result "0-1"]
[BlackElo "2776"]
[BlackFideId "4168119"]
[BlackTitle "GM"]
[ECO "B92"]
[EventDate "2019.09.02"]
[Opening "Sicilian"]
[Variation "Najdorf, Opovcensky variation"]
[WhiteElo "2811"]
[WhiteFideId "8603677"]
[WhiteTitle "GM"]

1. e4 c5 2. Nf3 d6 3. d4 cxd4 4. Nxd4 Nf6 5. Nc3 a6 6. Be2 e5 7. Nb3 Be7
8. Be3 Be6 9. O-O O-O 10. Qd3 Nbd7 11. Nd5 Bxd5 12. exd5 g6 13. a4 Ne8 14. a5 f5
15. f3 Bg5 16. c4 Rc8 17. Qd2 Bxe3+ 18. Qxe3 Nef6 19. Nd2 f4 20. Qf2 Qe7
21. b4 Kh8 22. Bd3 Qg7 23. Rac1 Qe7 24. Rfe1 Rc7 25. Nb3 Rfc8 26. Rc2 Kg7
27. Nd4 Nf8 28. Bf5 Ra8 29. Ne6+ Nxe6 30. Bxe6 Nd7 31. c5 dxc5 32. Bxd7 Rxd7
33. Rxc5 Rad8 34. d6 Rxd6 35. Rcxe5 Qf6 36. Re7+ Kh6 37. h3 Rd2 38. Qc5 Qb2
39. Rxh7+ Kxh7 40. Qe7+ Qg7 41. Qh4+ Kg8 42. Re7 Qh8 43. Qg5 R2d6 44. Kh2 Qf6
0-1


[Event "chess.com Speed 2019"]
[Site "chess.com INT"]
[Date "2019.11.18"]
[Round "2.22"]
[White "Ding Liren"]
[Black "Nepomniachtchi,I"]
[Result "1-0"]
[BlackElo "2776"]
[BlackFideId "4168119"]
[BlackTitle "GM"]
[ECO "A35"]
[EventDate "2019.09.02"]
[Opening "English"]
[Variation "symmetrical, four knights system"]
[WhiteElo "2811"]
[WhiteFideId "8603677"]
[WhiteTitle "GM"]

1. Nf3 Nf6 2. c4 c5 3. Nc3 Nc6 4. e3 e6 5. d4 d5 6. cxd5 exd5 7. Bb5 a6
8. Bxc6+ bxc6 9. O-O Bd6 10. dxc5 Bxc5 11. b3 O-O 12. Bb2 Re8 13. Rc1 Bd6
14. Na4 Bd7 15. Nc5 Bxc5 16. Rxc5 Ne4 17. Rc1 a5 18. Qd4 f6 19. Nd2 Qe7
20. Nxe4 Qxe4 21. Qxe4 Rxe4 22. Bd4 h5 23. Rc5 h4 24. Rfc1 h3 25. f3 Ree8
26. g4 Reb8 27. Rb1 a4 28. b4 Kf7 29. a3 Rb5 30. Kf2
1-0


[Event "chess.com Speed 2019"]
[Site "chess.com INT"]
[Date "2019.11.18"]
[Round "2.16"]
[White "Ding Liren"]
[Black "Nepomniachtchi,I"]
[Result "1/2-1/2"]
[BlackElo "2776"]
[BlackFideId "4168119"]
[BlackTitle "GM"]
[ECO "A20"]
[EventDate "2019.09.02"]
[Opening "English opening"]
[WhiteElo "2811"]
[WhiteFideId "8603677"]
[WhiteTitle "GM"]

1. c4 e5 2. g3 Nf6 3. Bg2 d5 4. cxd5 Nxd5 5. Nf3 Nc6 6. O-O Nb6 7. b3 Be6
8. Bb2 f6 9. Nc3 Qd7 10. Qc2 O-O-O 11. Rac1 Kb8 12. Rfd1 Nd4 13. Nxd4 exd4
14. Ne4 d3 15. exd3 h5 16. h4 c6 17. Re1 Bh3 18. d4 Bxg2 19. Kxg2 Nd5
20. Nc5 Bxc5 21. dxc5 g5 22. Rh1 Rhg8 23. Qc4 Rde8 24. Rce1 Nf4+ 25. gxf4 Qg4+
26. Kf1 Rxe1+ 27. Kxe1 Re8+ 28. Kf1 gxf4 29. Bxf6 Qf3 30. Rh2 Qd1+ 31. Kg2 Qg4+
1/2-1/2


[Event "chess.com Speed 2019"]
[Site "chess.com INT"]
[Date "2019.11.18"]
[Round "2.14"]
[White "Ding Liren"]
[Black "Nepomniachtchi,I"]
[Result "1/2-1/2"]
[BlackElo "2776"]
[BlackFideId "4168119"]
[BlackTitle "GM"]
[ECO "A20"]
[EventDate "2019.09.02"]
[Opening "English opening"]
[WhiteElo "2811"]
[WhiteFideId "8603677"]
[WhiteTitle "GM"]

1. c4 e5 2. g3 Nf6 3. Bg2 d5 4. cxd5 Nxd5 5. Nf3 Nc6 6. O-O Nb6 7. b3 f6
8. Bb2 Be6 9. Nc3 Qd7 10. d4 Nxd4 11. Nxd4 exd4 12. Ne4 Rd8 13. Qc2 d3
14. exd3 Be7 15. d4 O-O 16. Nc5 Bxc5 17. dxc5 Nd5 18. c6 Qxc6 19. Qxc6 bxc6
20. Ba3 Rfe8 21. Rac1 Bf7 22. Rxc6 Re2 23. Ra1 Rde8 24. Bf3 Rd2 25. Rcc1 Rd3
26. Bg2 a5 27. Bf1 Rd2 28. Rd1 Rxd1 29. Rxd1 a4 30. bxa4 Ra8 31. Bc4 Nc3
32. Bxf7+ Kxf7 33. Rd7+ Kg6 34. Rxc7 Nxa4 35. Bc1 Nb6 36. a3 h5 37. h4 Nd5
38. Rc5 Ne7 39. Kg2 Nf5 40. Rc4 Nd6 41. Rb4 Rc8 42. Bf4 Nf5 43. a4 Rc2
44. a5 Ra2 45. Rb5 Nd4 46. Rd5 Nb3 47. Bc7 Nd2 48. Bb6 Nc4 49. Rc5 Nxb6
50. axb6 Rb2 51. Rc6 Kf5 52. Kf3 g5 53. Ke3 Ke5 54. f4+ gxf4+ 55. gxf4+ Kf5
56. Kd3 Kxf4 57. Kc3 Rb1 58. Rc4+ Kg3 59. Rb4 Rc1+ 60. Kd4 Rc8 61. b7 Rb8
62. Kc5 f5 63. Kc6 f4 64. Kc7 Rxb7+ 65. Kxb7 f3 66. Kc6 f2 67. Rb1 Kxh4
68. Kd5 Kg3 69. Ke4 Kg2 70. Ke3 f1=Q 71. Rxf1 Kxf1 72. Kf3 Ke1 73. Kg3 Kd2
74. Kh4 Ke3 75. Kxh5
1/2-1/2


[Event "chess.com Speed 2019"]
[Site "chess.com INT"]
[Date "2019.11.18"]
[Round "2.26"]
[White "Ding Liren"]
[Black "Nepomniachtchi,I"]
[Result "1/2-1/2"]
[BlackElo "2776"]
[BlackFideId "4168119"]
[BlackTitle "GM"]
[ECO "A04"]
[EventDate "2019.09.02"]
[Opening "Reti opening"]
[WhiteElo "2811"]
[WhiteFideId "8603677"]
[WhiteTitle "GM"]

1. Nf3 b6 2. e4 Bb7 3. Nc3 e6 4. d4 Bb4 5. Bd3 Nf6 6. Nd2 c5 7. a3 cxd4
8. axb4 dxc3 9. bxc3 Qc7 10. c4 d6 11. O-O Nbd7 12. Bb2 O-O 13. Qe2 a5
14. c3 Ne5 15. Rfd1 Rfc8 16. b5 Nxd3 17. Qxd3 Nd7 18. Ba3 Nc5 19. Qe3 Qe7
20. Bxc5 Rxc5 21. Nb3 Rxc4 22. Qxb6 Rxc3 23. Nxa5 Bxe4 24. Nc6 Bxc6
25. bxc6 Rxa1 26. Rxa1 h6 27. g3 Kh7 28. Qb7 Qxb7 29. cxb7 Rb3 30. Ra7 Kg6
31. Kf1 d5 32. Ke2 d4 33. Kd2 d3 34. Ra3 Rxb7 35. Rxd3 Kf5 36. Ke3 g5
37. Kf3 g4+ 38. Kg2 h5 39. h4 f6 40. Ra3 Rb5 41. Ra6 Ke5 42. Ra7 Rd5 43. Rh7 Ke4
44. Re7 Re5 45. Rf7 f5 46. Rh7 f4 47. gxf4 Kxf4 48. Rf7+ Rf5 49. Ra7 e5
50. Ra3 e4 51. Ra8 Rd5 52. Rf8+ Ke5 53. Rh8 Kd4 54. Re8 Re5 55. Rd8+ Kc3
56. Rd7 e3 57. fxe3 Rxe3 58. Rd5 Rh3 59. Rxh5 Kd3 60. Rh8 Ke4
1/2-1/2


[Event "chess.com Speed 2019"]
[Site "chess.com INT"]
[Date "2019.11.18"]
[Round "2.20"]
[White "Ding Liren"]
[Black "Nepomniachtchi,I"]
[Result "0-1"]
[BlackElo "2776"]
[BlackFideId "4168119"]
[BlackTitle "GM"]
[ECO "B92"]
[EventDate "2019.09.02"]
[Opening "Sicilian"]
[Variation "Najdorf, Opovcensky variation"]
[WhiteElo "2811"]
[WhiteFideId "8603677"]
[WhiteTitle "GM"]

1. e4 c5 2. Nf3 d6 3. d4 cxd4 4. Nxd4 Nf6 5. Nc3 a6 6. Be2 e5 7. Nb3 Be7
8. Be3 Be6 9. Qd3 O-O 10. Nd5 Nxd5 11. exd5 Bc8 12. O-O Nd7 13. Qd2 f5
14. f3 Bh4 15. Kh1 f4 16. Bf2 Bxf2 17. Rxf2 Qh4 18. Rff1 Nf6 19. Qe1 Qh6
20. c4 Bf5 21. c5 Kh8 22. Rd1 Bc2 23. Rd2 Bxb3 24. axb3 dxc5 25. Bd1 Rfe8
26. Bc2 Rad8 27. d6 e4 28. d7 Rxd7 29. Rxd7 Nxd7 30. Bxe4 Nf6 31. Qc3 Nxe4
32. fxe4 Rxe4 33. Qxc5 Qe6 34. Qf8+ Qg8 35. Qc5 h6 36. b4 Qe6 37. h3 Re1
38. Qf8+ Kh7 39. Qxf4 Re4 40. Qd2 Qc4 41. Qf2 Re5 42. Qf4 Qxf4 43. Rxf4 Re2
44. b5 axb5 45. Rb4 Re5 46. Kh2 Kg6 47. g4 Kf6 48. h4 Ke6 49. Kg3 Kd6
50. Kf4 g5+ 51. hxg5 hxg5+ 52. Kf3 Kc5 53. Rb3 b4 54. Rd3 Rd5 55. Re3 Rd2
56. Re5+ Kc4 57. Rxg5 Rxb2 58. Rg7 b6 59. Rc7+ Kb5 60. g5 Rb1 61. g6 Rg1
62. g7 b3 63. Kf2 Rg6
0-1


[Event "chess.com Speed 2019"]
[Site "chess.com INT"]
[Date "2019.11.18"]
[Round "2.28"]
[White "Ding Liren"]
[Black "Nepomniachtchi,I"]
[Result "1-0"]
[BlackElo "2776"]
[BlackFideId "4168119"]
[BlackTitle "GM"]
[ECO "D02"]
[EventDate "2019.09.02"]
[Opening "Queen's pawn game"]
[WhiteElo "2811"]
[WhiteFideId "8603677"]
[WhiteTitle "GM"]

1. Nf3 d5 2. d4 Bf5 3. c4 e6 4. Nc3 Nf6 5. Nh4 Bb4 6. Nxf5 exf5 7. Bg5 dxc4
8. e3 b5 9. a4 Nbd7 10. axb5 h6 11. Bxf6 Nxf6 12. Bxc4 Ne4 13. Qb3 Bxc3+
14. bxc3 Nd6 15. Bd5 Rb8 16. Bc6+ Kf8 17. Rxa7 h5 18. O-O h4 19. h3 Rh6
20. Qd5 Rg6 21. c4 Qg5 22. Rxc7 Ne4 23. Qxf7#
1-0


[Event "chess.com Speed 2019"]
[Site "chess.com INT"]
[Date "2019.11.18"]
[Round "2.24"]
[White "Ding Liren"]
[Black "Nepomniachtchi,I"]
[Result "1-0"]
[BlackElo "2776"]
[BlackFideId "4168119"]
[BlackTitle "GM"]
[ECO "A22"]
[EventDate "2019.09.02"]
[Opening "English"]
[Variation "Bremen, reverse dragon"]
[WhiteElo "2811"]
[WhiteFideId "8603677"]
[WhiteTitle "GM"]

1. c4 e5 2. Nc3 Nf6 3. g3 d5 4. cxd5 Nxd5 5. Bg2 Nb6 6. d3 Be7 7. Be3 O-O
8. Rc1 Re8 9. Qc2 Nc6 10. Bxc6 bxc6 11. Nf3 Bd6 12. O-O Nd5 13. Bd2 Rb8
14. Ne4 f5 15. Nxd6 cxd6 16. Qxc6 Bb7 17. Qa4 e4 18. dxe4 fxe4 19. Nd4 e3
20. Bxe3 Nxe3 21. fxe3 Rxe3 22. Qxa7 Re7 23. Qa3 Kh8 24. Rf2 Qb6 25. e3 Ba8
26. Qb3 Qd8 27. Qc3 Re8 28. Nf5 Qg5 29. h4 Qg4 30. Rf4 Qg6 31. h5 Qg5 32. h6 Re5
33. hxg7+ Kg8 34. Qc8+ Re8 35. Qc4+ d5 36. Qd4 Qg6 37. Rcf1 h5 38. Ne7+ Rxe7
39. Rf8+ Kh7 40. Rh8+
1-0


[Event "chess.com Speed 2019"]
[Site "chess.com INT"]
[Date "2019.11.18"]
[Round "2.30"]
[White "Ding Liren"]
[Black "Nepomniachtchi,I"]
[Result "1/2-1/2"]
[BlackElo "2776"]
[BlackFideId "4168119"]
[BlackTitle "GM"]
[ECO "D37"]
[EventDate "2019.09.02"]
[Opening "QGD"]
[Variation "4.Nf3"]
[WhiteElo "2811"]
[WhiteFideId "8603677"]
[WhiteTitle "GM"]

1. Nf3 e6 2. c4 d5 3. d4 Nf6 4. Nc3 a6 5. cxd5 exd5 6. Bg5 Be6 7. e3 h6
8. Bf4 Nbd7 9. h3 Be7 10. Bd3 c5 11. dxc5 Nxc5 12. O-O O-O 13. Rc1 Rc8
14. Bb1 Qd7 15. Ne2 Bf5 16. Bxf5 Qxf5 17. Ned4 Qd7 18. Ne5 Qd8 19. Qe2 Re8
20. Nd3 Nxd3 21. Qxd3 Bf8 22. Rc2 Rxc2 23. Qxc2 Ne4 24. Rc1 Bc5 25. Nf3 Qf6
26. Rd1 Rd8 27. Be5 Qe6 28. Bd4 Bf8 29. Rc1 Bd6 30. Qb3 Qd7 31. a4 Bb8
32. a5 Re8 33. Rd1 Ng5 34. Nxg5 hxg5 35. Bc3 Rd8 36. e4 Qc7 37. Rxd5 Qh2+
38. Kf1 Re8 39. Qxb7 Qh1+ 40. Ke2 Qxg2 41. Rd7 Rxe4+ 42. Kd3 Qf3+ 43. Kc2 Qf5
44. Kb3 Bf4 45. Qd5 Qg6 46. Rd8+ Kh7 47. Rf8 Re7 48. Qa8 Qe6+ 49. Kc2 Qf5+
50. Kb3 Qe6+ 51. Kc2 Qe2+ 52. Kb3 Qb5+ 53. Ka3 Bd6+ 54. b4 Qxa5+ 55. Kb3 Qf5
56. Rh8+ Kg6 57. Qxa6 Qb1+ 58. Bb2 Qd1+ 59. Ka2 Qd5+ 60. Ka3 Re6 61. Qc8 Bxb4+
62. Kxb4 Rb6+ 63. Kc3 Qb3+ 64. Kd4 Qxb2+ 65. Ke3 Re6+ 66. Kf3 Qf6+ 67. Kg2 Re2
68. Qc5 Qf5 69. Qxf5+ Kxf5 70. Rg8 g6 71. Ra8 f6 72. Ra5+ Re5 73. Ra4 Re4
74. Ra3 Ke6 75. Rb3 Rd4 76. Ra3 Rd6 77. Ra5 f5 78. Ra2 Kf6 79. Ra8 Rd4
80. Rf8+ Kg7 81. Rb8 g4 82. hxg4 Rxg4+ 83. Kf3 Ra4 84. Rc8 Kf6 85. Rc6+ Kg5
86. Rc3 Rh4 87. Kg3 f4+ 88. Kg2 Rg4+ 89. Kf3 Rh4 90. Rc5+ Kh6 91. Ke4 g5
92. f3 g4 93. Kxf4 gxf3+ 94. Kxf3 Rh5 95. Rxh5+ Kxh5
1/2-1/2


[Event "2021-candidates-chess-tournament"]
[White "Nepomniachtchi, Ian"]
[Black "Ding, Liren"]
[WhiteFideId "4168119"]
[BlackFideId "8603677"]
[WhiteElo "2789"]
[BlackElo "2791"]
[Result "1-0"]
[Round "06"]
[Date "Mon Mar 23 2020"]
[WhiteClock "0:40:27"]
[BlackClock "0:23:10"]


1. e4 {[%clk 1:41:00]}  e5 {[%clk 1:40:56]} 2. Nf3 {[%clk 1:41:23]}  Nc6 {[%clk 1:41:24]} 3. Bb5 {[%clk 1:41:45]}  a6 {[%clk 1:41:49]} 4. Ba4 {[%clk 1:42:10]}  Nf6 {[%clk 1:42:17]} 5. O-O {[%clk 1:42:29]}  Be7 {[%clk 1:42:45]} 6. d3 {[%clk 1:42:25]}  b5 {[%clk 1:43:08]} 7. Bb3 {[%clk 1:42:51]}  d6 {[%clk 1:43:25]} 8. a3 {[%clk 1:43:05]}  O-O {[%clk 1:43:24]} 9. Nc3 {[%clk 1:43:28]}  Na5 {[%clk 1:42:58]} 10. Ba2 {[%clk 1:42:44]}  Be6 {[%clk 1:43:24]} 11. b4 {[%clk 1:42:58]}  Bxa2 {[%clk 1:43:45]} 12. Rxa2 {[%clk 1:43:24]}  Nc6 {[%clk 1:43:44]} 13. Bg5 {[%clk 1:43:40]}  Qd7 {[%clk 1:40:31]} 14. Bxf6 {[%clk 1:44:01]}  Bxf6 {[%clk 1:40:59]} 15. Nd5 {[%clk 1:44:24]}  a5 {[%clk 1:40:47]} 16. Rb2 {[%clk 1:44:49]}  axb4 {[%clk 1:28:45]} 17. axb4 {[%clk 1:44:54]}  Bd8 {[%clk 1:27:16]} 18. c4 {[%clk 1:45:09]}  Nd4 {[%clk 1:26:46]} 19. Nxd4 {[%clk 1:45:24]}  exd4 {[%clk 1:27:17]} 20. Qc2 {[%clk 1:45:39]}  Re8 {[%clk 1:16:49]} 21. g3 {[%clk 1:46:07]}  bxc4 {[%clk 1:15:22]} 22. Qxc4 {[%clk 1:41:54]}  c6 {[%clk 1:13:59]} 23. Nf4 {[%clk 1:46:08]}  Bg5 {[%clk 1:13:54]} 24. Ne2 {[%clk 1:44:59]}  d5 {[%clk 1:04:37]} 25. exd5 {[%clk 1:40:18]}  cxd5 {[%clk 1:05:02]} 26. Qb3 {[%clk 1:40:39]}  h5 {[%clk 1:05:21]} 27. b5 {[%clk 1:35:03]}  h4 {[%clk 1:03:38]} 28. b6 {[%clk 1:34:49]}  h3 {[%clk 1:04:01]} 29. Kh1 {[%clk 1:34:52]}  Reb8 {[%clk 1:04:20]} 30. Rfb1 {[%clk 1:35:19]}  Bd8 {[%clk 0:56:33]} 31. Qb5 {[%clk 1:33:39]}  Qg4 {[%clk 0:57:02]} 32. Qxd5 {[%clk 1:31:54]}  Ra5 {[%clk 0:56:06]} 33. Qc6 {[%clk 1:30:26]}  Rc5 {[%clk 0:56:18]} 34. Qe8+ {[%clk 1:29:13]}  Kh7 {[%clk 0:40:37]} 35. Ng1 {[%clk 1:25:53]}  Rxb6 {[%clk 0:39:02]} 36. Qxd8 {[%clk 1:08:48]}  Rxb2 {[%clk 0:35:30]} 37. Rxb2 {[%clk 0:49:14]}  Rc1 {[%clk 0:35:56]} 38. Qh4+ {[%clk 0:46:02]}  Qxh4 {[%clk 0:36:25]} 39. gxh4 {[%clk 0:40:43]}  Rd1 {[%clk 0:23:10]} 40. f3 {[%clk 0:40:27]} 1-0



[Event "FIDE Candidates Chess Tournament 2020-2021"]
[White "Ding, Liren"]
[Black "Nepomniachtchi, Ian"]
[WhiteFideId "8603677"]
[BlackFideId "4168119"]
[WhiteElo "2791"]
[BlackElo "2789"]
[Result "1-0"]
[Round "14"]
[TimeControl "5400+30"]
[Date "Tue Apr 27 2021"]
[WhiteClock "0:32:40"]
[BlackClock "0:20:10"]

1. d4 {[%clk 1:41:00]}  Nf6 {[%clk 1:41:00]} 2. c4 {[%clk 1:40:57]}  g6 {[%clk 1:40:29]} 3. f3 {[%clk 1:41:21]}  e6 {[%clk 1:40:54]} 4. e4 {[%clk 1:41:32]}  c5 {[%clk 1:40:24]} 5. d5 {[%clk 1:41:28]}  d6 {[%clk 1:40:49]} 6. Bd3 {[%clk 1:41:54]}  Bg7 {[%clk 1:41:10]} 7. Ne2 {[%clk 1:42:05]}  exd5 {[%clk 1:38:46]} 8. cxd5 {[%clk 1:41:59]}  Nbd7 {[%clk 1:36:35]} 9. Nec3 {[%clk 1:41:41]}  a6 {[%clk 1:36:48]} 10. a4 {[%clk 1:41:21]}  Nh5 {[%clk 1:34:35]} 11. O-O {[%clk 1:41:39]}  Bd4+ {[%clk 1:28:38]} 12. Kh1 {[%clk 1:16:36]}  Ne5 {[%clk 1:22:22]} 13. Ne2 {[%clk 1:16:57]}  Qh4 {[%clk 1:19:41]} 14. Nxd4 {[%clk 1:04:22]}  Nxd3 {[%clk 1:15:44]} 15. Qxd3 {[%clk 1:04:49]}  Ng3+ {[%clk 0:53:13]} 16. Kg1 {[%clk 1:01:18]}  Nxf1 {[%clk 0:53:04]} 17. Nc2 {[%clk 1:01:45]}  Nxh2 {[%clk 0:53:31]} 18. Qe3 {[%clk 1:00:16]}  O-O {[%clk 0:53:47]} 19. Qg5 {[%clk 0:44:40]}  Nxf3+ {[%clk 0:50:08]} 20. gxf3 {[%clk 0:41:11]}  Qh3 {[%clk 0:47:28]} 21. Bf4 {[%clk 0:41:39]}  Qxf3 {[%clk 0:47:49]} 22. Nd2 {[%clk 0:37:10]}  f6 {[%clk 0:45:08]} 23. Qxg6+ {[%clk 0:37:25]}  hxg6 {[%clk 0:32:16]} 24. Nxf3 {[%clk 0:36:14]}  Bg4 {[%clk 0:32:00]} 25. Nd2 {[%clk 0:36:41]}  Be2 {[%clk 0:28:35]} 26. Kf2 {[%clk 0:36:58]}  Bd3 {[%clk 0:25:09]} 27. Ne1 {[%clk 0:34:28]}  c4 {[%clk 0:23:03]} 28. Bxd6 {[%clk 0:34:53]}  Rfe8 {[%clk 0:21:23]} 29. Nxd3 {[%clk 0:35:03]}  cxd3 {[%clk 0:20:48]} 30. Bc7 {[%clk 0:34:30]}  Kf7 {[%clk 0:21:15]} 31. Ra3 {[%clk 0:32:52]}  Rac8 {[%clk 0:20:44]} 32. d6 {[%clk 0:32:31]}  Ke6 {[%clk 0:20:15]} 33. Rxd3 {[%clk 0:32:42]}  Kd7 {[%clk 0:19:55]} 34. Nc4 {[%clk 0:32:21]}  Rxc7 {[%clk 0:20:10]} 35. Nb6+ {[%clk 0:32:40]} 1-0





[Event "Champions Chess Tour FTX Crypto Cup Prelims 2021"]
[White "Nepomniachtchi, Ian"]
[Black "Ding, Liren"]
[WhiteFideId "4168119"]
[BlackFideId "8603677"]
[WhiteElo "2778"]
[BlackElo "2836"]
[Result "1-0"]
[Round "14"]
[TimeControl "900+10"]
[Date "Tue May 25 2021"]
[WhiteClock "0:04:56"]
[BlackClock "0:01:38"]

1. e4 {[%clk 0:15:20]}  c6 {[%clk 0:15:20]} 2. d4 {[%clk 0:15:28]}  d5 {[%clk 0:15:40]} 3. Nc3 {[%clk 0:15:57]}  dxe4 {[%clk 0:15:40]} 4. Nxe4 {[%clk 0:15:57]}  Bf5 {[%clk 0:15:40]} 5. Ng3 {[%clk 0:15:57]}  Bg6 {[%clk 0:15:49]} 6. h4 {[%clk 0:16:05]}  h6 {[%clk 0:15:57]} 7. Nf3 {[%clk 0:16:10]}  Nd7 {[%clk 0:16:05]} 8. Bd3 {[%clk 0:16:17]}  Bxd3 {[%clk 0:15:45]} 9. Qxd3 {[%clk 0:15:51]}  e6 {[%clk 0:15:53]} 10. Bf4 {[%clk 0:15:58]}  Ngf6 {[%clk 0:15:05]} 11. O-O-O {[%clk 0:16:06]}  Be7 {[%clk 0:15:14]} 12. Qe2 {[%clk 0:16:02]}  O-O {[%clk 0:14:51]} 13. Kb1 {[%clk 0:16:10]}  a5 {[%clk 0:13:56]} 14. Ne4 {[%clk 0:16:10]}  Nxe4 {[%clk 0:12:33]} 15. Qxe4 {[%clk 0:16:18]}  Nf6 {[%clk 0:10:07]} 16. Qe2 {[%clk 0:16:18]}  a4 {[%clk 0:11:01]} 17. g4 {[%clk 0:16:40]}  Nd5 {[%clk 0:08:51]} 18. Bd2 {[%clk 0:15:33]}  Qb6 {[%clk 0:09:00]} 19. c4 {[%clk 0:14:52]}  Ba3 {[%clk 0:08:50]} 20. Be1 {[%clk 0:15:00]}  Nf4 {[%clk 0:08:54]} 21. Qc2 {[%clk 0:15:07]}  Rfd8 {[%clk 0:07:52]} 22. h5 {[%clk 0:15:41]}  c5 {[%clk 0:05:52]} 23. Bc3 {[%clk 0:15:49]}  cxd4 {[%clk 0:05:34]} 24. Rxd4 {[%clk 0:15:41]}  Rxd4 {[%clk 0:05:38]} 25. Nxd4 {[%clk 0:15:32]}  Bb4 {[%clk 0:05:07]} 26. Bxb4 {[%clk 0:13:06]}  Qxb4 {[%clk 0:04:39]} 27. a3 {[%clk 0:12:53]}  Qc5 {[%clk 0:04:47]} 28. Qe4 {[%clk 0:09:57]}  Rd8 {[%clk 0:05:26]} 29. Nf3 {[%clk 0:10:04]}  Qd6 {[%clk 0:03:46]} 30. Ka1 {[%clk 0:10:11]}  b6 {[%clk 0:02:51]} 31. g5 {[%clk 0:09:32]}  hxg5 {[%clk 0:01:28]} 32. Nxg5 {[%clk 0:09:56]}  f5 {[%clk 0:01:35]} 33. Qb7 {[%clk 0:10:04]}  Rd7 {[%clk 0:01:27]} 34. Qa8+ {[%clk 0:10:09]}  Rd8 {[%clk 0:01:36]} 35. Qxa4 {[%clk 0:10:17]}  Qe7 {[%clk 0:01:14]} 36. Nf3 {[%clk 0:10:05]}  Qb7 {[%clk 0:01:22]} 37. Rd1 {[%clk 0:10:13]}  Rxd1+ {[%clk 0:00:36]} 38. Qxd1 {[%clk 0:10:31]}  Kh7 {[%clk 0:00:40]} 39. Qb3 {[%clk 0:06:07]}  Kh6 {[%clk 0:00:29]} 40. c5 {[%clk 0:05:48]}  Nd5 {[%clk 0:00:29]} 41. Ne5 {[%clk 0:05:27]}  Qc7 {[%clk 0:00:32]} 42. Qg3 {[%clk 0:05:32]}  Kxh5 {[%clk 0:00:23]} 43. Qh2+ {[%clk 0:05:38]}  Kg5 {[%clk 0:00:30]} 44. Nf3+ {[%clk 0:06:34]}  Kf6 {[%clk 0:00:39]} 45. Qxc7 {[%clk 0:06:46]}  Nxc7 {[%clk 0:00:00]} 46. cxb6 {[%clk 0:06:46]}  Na6 {[%clk 0:00:09]} 47. b4 {[%clk 0:05:53]}  Ke7 {[%clk 0:00:18]} 48. Kb2 {[%clk 0:05:21]}  Kd6 {[%clk 0:00:26]} 49. Kc3 {[%clk 0:05:01]}  Kc6 {[%clk 0:01:20]} 50. Nd4+ {[%clk 0:05:08]}  Kxb6 {[%clk 0:01:29]} 51. Nxe6 {[%clk 0:04:54]}  g6 {[%clk 0:01:38]} 52. a4 {[%clk 0:04:56]} 1-0





[Event "FIDE Candidates Chess Tournament 2022"]
[White "Ding, Liren"]
[Black "Nepomniachtchi, Ian"]
[WhiteFideId "8603677"]
[BlackFideId "4168119"]
[WhiteElo "2806"]
[BlackElo "2766"]
[Result "0-1"]
[Round "01"]
[TimeControl "5400+30"]
[Date "2022.06.17"]
[WhiteClock "0:02:09"]
[BlackClock "0:29:14"]

1. c4 {[%clk 1:59:58]}  e5 {[%clk 1:59:53]} 2. g3 {[%clk 1:59:34]}  c6 {[%clk 1:59:47]} 3. Nf3 {[%clk 1:58:19]}  e4 {[%clk 1:59:30]} 4. Nd4 {[%clk 1:58:15]}  d5 {[%clk 1:59:06]} 5. cxd5 {[%clk 1:57:44]}  Qxd5 {[%clk 1:58:27]} 6. Nc2 {[%clk 1:57:38]}  Nf6 {[%clk 1:57:46]} 7. Nc3 {[%clk 1:57:33]}  Qe5 {[%clk 1:57:01]} 8. Bg2 {[%clk 1:57:27]}  Na6 {[%clk 1:55:51]} 9. O-O {[%clk 1:56:59]}  Be7 {[%clk 1:53:16]} 10. Ne3 {[%clk 1:56:43]}  O-O {[%clk 1:52:00]} 11. a3 {[%clk 1:56:19]}  Re8 {[%clk 1:43:34]} 12. b4 {[%clk 1:54:14]}  Ng4 {[%clk 1:34:39]} 13. Bb2 {[%clk 1:42:47]}  Qh5 {[%clk 1:30:56]} 14. h4 {[%clk 1:22:22]}  Bf6 {[%clk 1:22:33]} 15. Qc2 {[%clk 1:22:14]}  Nxe3 {[%clk 1:20:48]} 16. dxe3 {[%clk 1:21:32]}  Bf5 {[%clk 1:19:20]} 17. Na4 {[%clk 1:12:21]}  Bxb2 {[%clk 1:00:29]} 18. Nxb2 {[%clk 1:10:59]}  Nc7 {[%clk 0:59:18]} 19. Nc4 {[%clk 1:08:48]}  Re6 {[%clk 0:58:30]} 20. Rfd1 {[%clk 0:55:13]}  Nd5 {[%clk 0:58:01]} 21. Rd4 {[%clk 0:55:05]}  h6 {[%clk 0:51:29]} 22. Qd2 {[%clk 0:51:29]}  Rae8 {[%clk 0:48:34]} 23. Kh2 {[%clk 0:25:49]}  Bg4 {[%clk 0:45:02]} 24. Na5 {[%clk 0:24:53]}  Rf6 {[%clk 0:41:01]} 25. Kg1 {[%clk 0:23:07]}  g5 {[%clk 0:40:26]} 26. Nxb7 {[%clk 0:14:30]}  gxh4 {[%clk 0:39:44]} 27. Nc5 {[%clk 0:14:27]}  h3 {[%clk 0:34:58]} 28. Rxe4 {[%clk 0:07:34]}  hxg2 {[%clk 0:32:04]} 29. Rxe8+ {[%clk 0:07:22]}  Kg7 {[%clk 0:32:00]} 30. f4 {[%clk 0:02:16]}  Qh1+ {[%clk 0:29:30]} 31. Kf2 {[%clk 0:02:13]}  Qxa1 {[%clk 0:29:25]} 32. Kxg2 {[%clk 0:02:09]}  Bh3+ {[%clk 0:29:14]} 0-1





[Event "FIDE Candidates Chess Tournament 2022"]
[White "Nepomniachtchi, Ian"]
[Black "Ding, Liren"]
[WhiteFideId "4168119"]
[BlackFideId "8603677"]
[WhiteElo "2766"]
[BlackElo "2806"]
[Result "1/2-1/2"]
[Round "08"]
[TimeControl "5400+30"]
[Date "2022.06.26"]
[WhiteClock "1:41:49"]
[BlackClock "1:22:26"]

1. e4 {[%clk 1:59:56]}  e5 {[%clk 1:59:58]} 2. Nf3 {[%clk 1:59:51]}  Nc6 {[%clk 1:59:54]} 3. Nc3 {[%clk 1:59:47]}  Nf6 {[%clk 1:59:50]} 4. d4 {[%clk 1:59:42]}  exd4 {[%clk 1:59:46]} 5. Nxd4 {[%clk 1:59:36]}  Bb4 {[%clk 1:59:37]} 6. Nxc6 {[%clk 1:59:26]}  bxc6 {[%clk 1:59:34]} 7. Bd3 {[%clk 1:59:16]}  d5 {[%clk 1:59:27]} 8. exd5 {[%clk 1:59:04]}  O-O {[%clk 1:59:21]} 9. O-O {[%clk 1:58:59]}  cxd5 {[%clk 1:59:17]} 10. Qf3 {[%clk 1:58:45]}  c6 {[%clk 1:58:14]} 11. Bg5 {[%clk 1:58:27]}  Bd6 {[%clk 1:53:34]} 12. Rae1 {[%clk 1:58:09]}  Rb8 {[%clk 1:52:05]} 13. Nd1 {[%clk 1:57:54]}  h6 {[%clk 1:48:15]} 14. Bxf6 {[%clk 1:57:35]}  Qxf6 {[%clk 1:48:11]} 15. Qxf6 {[%clk 1:57:30]}  gxf6 {[%clk 1:48:08]} 16. b3 {[%clk 1:57:24]}  f5 {[%clk 1:47:23]} 17. Ne3 {[%clk 1:57:02]}  f4 {[%clk 1:47:15]} 18. Nf5 {[%clk 1:56:55]}  Bxf5 {[%clk 1:47:12]} 19. Bxf5 {[%clk 1:56:49]}  Kg7 {[%clk 1:47:04]} 20. g3 {[%clk 1:56:12]}  Kf6 {[%clk 1:46:13]} 21. Bd3 {[%clk 1:56:01]}  h5 {[%clk 1:39:41]} 22. Kg2 {[%clk 1:54:46]}  Rh8 {[%clk 1:39:12]} 23. Kf3 {[%clk 1:52:46]}  fxg3 {[%clk 1:38:49]} 24. hxg3 {[%clk 1:51:01]}  h4 {[%clk 1:38:40]} 25. Rh1 {[%clk 1:50:23]}  hxg3 {[%clk 1:38:38]} 26. fxg3 {[%clk 1:50:17]}  a5 {[%clk 1:36:52]} 27. a4 {[%clk 1:48:15]}  Bb4 {[%clk 1:30:37]} 28. Ref1 {[%clk 1:46:04]}  Rxh1 {[%clk 1:25:58]} 29. Rxh1 {[%clk 1:45:46]}  Ke5 {[%clk 1:24:25]} 30. Rh4 {[%clk 1:43:33]}  Rg8 {[%clk 1:23:10]} 31. Rg4 {[%clk 1:42:36]}  Rxg4 {[%clk 1:22:58]} 32. Kxg4 {[%clk 1:42:32]}  f6 {[%clk 1:22:55]} 33. Kf3 {[%clk 1:42:26]}  f5 {[%clk 1:22:51]} 34. Ke2 {[%clk 1:42:08]}  Bc3 {[%clk 1:22:34]} 35. Kf3 {[%clk 1:42:03]}  Bb4 {[%clk 1:22:32]} 36. Ke2 {[%clk 1:41:57]}  Bc3 {[%clk 1:22:30]} 37. Kf3 {[%clk 1:41:49]}  Bb4 {[%clk 1:22:26]} 1/2-1/2[Event "Breisacher Memorial"]
[Site "Biel SUI"]
[Date "2013.07.31"]
[Round "9.2"]
[White "Ding Liren"]
[Black "Nepomniachtchi, I."]
[Result "1/2-1/2"]
[ECO "A34"]
[WhiteElo "2714"]
[BlackElo "2717"]
[PlyCount "128"]
[EventDate "2012.07.22"]
[EventType "tourn"]
[EventRounds "10"]
[EventCountry "SUI"]
[EventCategory "19"]
[Source "Mark Crowther"]
[SourceDate "2013.08.05"]

1. Nf3 Nf6 2. c4 c5 3. Nc3 d5 4. cxd5 Nxd5 5. g3 Nc6 6. Bg2 Nc7 7. O-O e5 8. a3
Rb8 9. Rb1 f6 10. d3 Be6 11. Be3 Qd7 12. Nd2 Be7 13. b4 cxb4 14. axb4 b5 15.
Rc1 Rc8 16. Nb3 O-O 17. Nc5 Bxc5 18. Bxc5 Rfd8 19. Ne4 Na6 20. Qd2 Nd4 21. Qb2
Nb3 22. Rc3 Nbxc5 23. Nxc5 Nxc5 24. Rxc5 Rxc5 25. bxc5 Rb8 26. c6 Qc7 27. d4
exd4 28. Qxd4 b4 29. Ra1 a5 30. Bd5 Bf7 31. Bxf7+ Qxf7 32. Qd6 Rc8 33. Rxa5 b3
34. Qb4 h6 35. Qb7 Rc7 36. Ra7 b2 37. Ra8+ Kh7 38. Qxb2 Rxc6 39. Qb1+ f5 40.
Ra5 g6 41. Qd3 Rc7 42. Rd5 Re7 43. Rd6 h5 44. f3 Qg7 45. Kf2 Qf7 46. Qd2 Qe8
47. h3 Qb5 48. Qd3 Qe8 49. Rd4 Qc6 50. g4 hxg4 51. hxg4 Qc7 52. Kg2 Qe5 53. Rd7
Rxd7 54. Qxd7+ Kh6 55. Qd2+ f4 56. Qd3 g5 57. Qe4 Qc5 58. Kf1 Qc1+ 59. Kf2 Qc5+
60. e3 fxe3+ 61. Qxe3 Qc2+ 62. Kg3 Qc7+ 63. Kh3 Qc6 64. Qe4 Qc1 1/2-1/2


[Event "7th Hainan Danzhou GM"]
[Site "Danzhou CHN"]
[Date "2016.07.08"]
[Round "1.3"]
[White "Nepomniachtchi, I."]
[Black "Ding Liren"]
[Result "1-0"]
[ECO "C45"]
[WhiteElo "2725"]
[BlackElo "2778"]
[PlyCount "79"]
[EventDate "2016.07.08"]
[EventType "tourn"]
[EventRounds "9"]
[EventCountry "CHN"]
[EventCategory "20"]
[SourceDate "2016.07.11"]

1. e4 e5 2. Nf3 Nc6 3. d4 exd4 4. Nxd4 Bc5 5. Nxc6 bxc6 6. Bd3 d6 7. h3 Ne7 8.
Nc3 Ng6 9. Na4 Bd4 10. c3 Bf6 11. O-O Ne5 12. Be2 O-O 13. f4 Nd7 14. Qc2 c5 15.
Bf3 Rb8 16. Be3 Ba6 17. Rfd1 Qe7 18. Bf2 Bb5 19. Rab1 Nb6 20. Nxb6 axb6 21. Re1
Bc4 22. b3 Be6 23. a4 Rfd8 24. b4 Bc4 25. bxc5 bxc5 26. Rxb8 Rxb8 27. e5 dxe5
28. fxe5 Bg5 29. a5 g6 30. Qe4 Qe6 31. Bxc5 h5 32. Bd4 Rb3 33. Ra1 c5 34. a6
Bxa6 35. Qa8+ Qc8 36. Rxa6 Rb8 37. Bf2 Kg7 38. Qc6 Rb1+ 39. Kh2 Qf5 40. Qe4 1-0


[Event "Sharjah Grand Prix 2017"]
[Site "Sharjah UAE"]
[Date "2017.02.22"]
[Round "5.3"]
[White "Ding Liren"]
[Black "Nepomniachtchi, I."]
[Result "1/2-1/2"]
[ECO "E60"]
[WhiteElo "2760"]
[BlackElo "2749"]
[PlyCount "89"]
[EventDate "2017.02.18"]
[EventType "swiss"]
[EventRounds "9"]
[EventCountry "UAE"]
[SourceDate "2017.02.27"]

1. d4 Nf6 2. c4 g6 3. f3 c5 4. d5 e6 5. Nc3 d6 6. e4 Bg7 7. Bg5 O-O 8. Qd2 h6
9. Be3 exd5 10. cxd5 a6 11. a4 Nh7 12. a5 h5 13. Ra3 Nd7 14. Nh3 Rb8 15. Be2 b5
16. axb6 Qxb6 17. Ra2 Ne5 18. Nf2 a5 19. O-O Ba6 20. Bxa6 Qxa6 21. Rfa1 Nc4 22.
Qe2 Ra8 23. Bc1 Rfb8 24. Nfd1 Nf8 25. Ra4 Rb4 26. b3 Nb6 27. Qxa6 Rxa6 28. Rxa5
Rxa5 29. Rxa5 Rxb3 30. Rb5 c4 31. Kf1 Nfd7 32. Bf4 Ne5 33. Be3 Nbd7 34. Ke2 Ra3
35. Rb4 Rb3 36. Ra4 Nb6 37. Ra6 Ned7 38. Kd2 f5 39. Kc2 fxe4 40. fxe4 Be5 41.
h3 Kf8 42. Nb1 Rb4 43. Nd2 Ke8 44. Nf3 Bf6 45. g4 1/2-1/2


[Event "11th World Teams 2017"]
[Site "Khanty-Mansiysk RUS"]
[Date "2017.06.24"]
[Round "7.4"]
[White "Nepomniachtchi, I."]
[Black "Ding Liren"]
[Result "1/2-1/2"]
[ECO "C45"]
[WhiteElo "2732"]
[BlackElo "2783"]
[PlyCount "164"]
[EventDate "2017.06.17"]
[EventType "team"]
[EventRounds "9"]
[EventCountry "RUS"]
[WhiteTeam "Russian Federation"]
[BlackTeam "China"]
[BlackTeamCountry "CHN"]

1. e4 e5 2. Nf3 Nc6 3. d4 exd4 4. Nxd4 Nf6 5. Nxc6 bxc6 6. e5 Qe7 7. Qe2 Nd5 8.
c4 Ba6 9. b3 g6 10. g3 Bg7 11. Bb2 O-O 12. Bg2 Rfe8 13. O-O Bxe5 14. Qxe5 Qxe5
15. Bxe5 Rxe5 16. cxd5 Bxf1 17. Kxf1 cxd5 18. Na3 c6 19. Nc2 a5 20. Rd1 Kf8 21.
Rd4 Ke7 22. Rf4 Rf5 23. Ra4 Kd6 24. Ke2 Re8+ 25. Kf1 Ra8 26. Ne3 Re5 27. Ke2
Kc7 28. Kd2 Kb6 29. Bf1 Re4 30. Ra3 Rae8 31. Bd3 R4e6 32. Ra4 Rf6 33. Ng4 Rf3
34. Be2 Rf5 35. Bd3 Rf3 36. Be2 Rf5 37. f4 h5 38. Ne5 d6 39. Nf3 c5 40. Ng5 d4
41. Bd3 Rf6 42. Be4 h4 43. Rc4 Re7 44. Rc1 d5 45. Bxd5 Rf5 46. Bc4 hxg3 47.
hxg3 f6 48. Ne6 Rh5 49. Re1 Rh2+ 50. Re2 Rxe2+ 51. Kxe2 Kc6 52. g4 Kd6 53. f5
gxf5 54. gxf5 Rh7 55. a4 Rh5 56. Bd3 Rh2+ 57. Ke1 Rh3 58. Kd2 Rh2+ 59. Ke1 Rh3
60. Kd2 Rh2+ 61. Be2 Rf2 62. Nd8 Kc7 63. Ne6+ Kd6 64. Ng7 Rg2 65. Ne8+ Ke5 66.
Nc7 Kxf5 67. Na6 Ke5 68. Nxc5 f5 69. Nd3+ Kd6 70. Ke1 Rg1+ 71. Kd2 Rg2 72. Ke1
Rg1+ 73. Bf1 Rg3 74. b4 axb4 75. Nxb4 Ra3 76. Bb5 Kc5 77. Nd3+ Kb6 78. Ke2 f4
79. Kf3 Ka5 80. Kxf4 Rxa4 81. Bxa4 Kxa4 82. Ke4 Kb5 1/2-1/2


[Event "World Blitz 2017"]
[Site "Riyadh KSA"]
[Date "2017.12.30"]
[Round "15.2"]
[White "Nepomniachtchi, I."]
[Black "Ding Liren"]
[Result "1/2-1/2"]
[ECO "C48"]
[WhiteElo "2729"]
[BlackElo "2777"]
[PlyCount "107"]
[EventDate "2017.12.29"]
[EventType "blitz"]

1. e4 e5 2. Nf3 Nc6 3. Nc3 Nf6 4. Bb5 Nd4 5. O-O Nxb5 6. Nxb5 c6 7. Nc3 d6 8.
d4 Qc7 9. h3 Be7 10. a4 O-O 11. Re1 Re8 12. b3 Bf8 13. Bb2 b6 14. Qd2 Bb7 15.
Rad1 Rad8 16. Qg5 h6 17. Qc1 a6 18. dxe5 dxe5 19. Ba3 c5 20. Nd2 Bc6 21. Nf3 b5
22. axb5 axb5 23. Rxd8 Rxd8 24. Bb2 b4 25. Nd5 Nxd5 26. exd5 Bxd5 27. Nxe5 Re8
28. Re3 Bd6 29. Ng4 Rxe3 30. Qxe3 Qe7 31. Qd2 Qe6 32. Ne3 Be4 33. c3 Qxb3 34.
cxb4 cxb4 35. Qd4 Bf8 36. Ng4 Qe6 37. Nxh6+ Qxh6 38. Qxe4 Qd2 39. Qd4 Qe2 40.
g3 b3 41. h4 Qe6 42. h5 f6 43. Kg2 Qc6+ 44. f3 Qc2+ 45. Kh3 Qf5+ 46. Kg2 Qxh5
47. g4 Qc5 48. Qe4 Qc2+ 49. Qxc2 bxc2 50. Kf1 Bd6 51. Bc1 Kf7 52. Ke2 Ke6 53.
Kd3 Kd5 54. Kxc2 1/2-1/2


[Event "2019-grand-chess-tour-tata-steel"]
[White "Nepomniachtchi, Ian"]
[Black "Ding, Liren"]
[WhiteFideId "4168119"]
[BlackFideId "8603677"]
[Result "0-1"]
[Round "05"]
[Date "Sat Nov 23 2019"]
[WhiteClock "0:02:32"]
[BlackClock "0:03:36"]


1. e4  e5 2. Nf3  Nc6 3. Bb5  a6 4. Ba4  Nf6 5. O-O  Be7 6. Re1  b5 7. Bb3  d6 8. c3  O-O 9. d4  Bg4 10. Be3  exd4 11. cxd4  Na5 12. Bc2  Nc4 13. Bc1  c5 14. b3  Nb6 15. Nbd2  Rc8 16. h3  Bh5 17. a4  cxd4 18. axb5  axb5 19. Bb2  Nbd7 20. Bxd4  Ne5 21. Bb1  Nfd7 22. Qe2  Bf6 23. g4  Bg6 24. Qxb5  h5 25. Ra7  hxg4 26. hxg4  Nc6 27. Ra4  Nxd4 28. Nxd4  Nc5 29. Rc4  Rb8 30. Qc6  Re8 31. e5  Bxb1 32. Rxb1  Bxe5 33. N4f3  Nd3 34. g5  d5 35. Rh4  g6 36. Qa6  Nc5 37. Qf1  Bg7 38. Qh3  Ne4 39. Kg2  Nxg5 40. Qh2  Nxf3 41. Nxf3  Re4 42. Rd1  Rxh4 43. Qxh4  Bf6 44. Qa4  Qd6 45. Rc1  d4 46. Qc6  Qf4 47. Qd7  Qxc1 0-1


[Event "2019-grand-chess-tour-tata-steel"]
[White "Nepomniachtchi, Ian"]
[Black "Ding, Liren"]
[WhiteFideId "4168119"]
[BlackFideId "8603677"]
[Result "0-1"]
[Round "25"]
[Date "Tue Nov 26 2019"]
[WhiteClock "0:00:00"]
[BlackClock "0:00:26"]


1. c4  Nf6 2. Nc3  e5 3. Nf3  Nc6 4. e4  Bb4 5. d3  d6 6. a3  Bc5 7. b4  Bb6 8. Na4  Bd4 9. Rb1  a6 10. Be2  b5 11. Nxd4  Nxd4 12. Nc3  O-O 13. O-O  c6 14. Be3  Be6 15. Re1  Nxe2+ 16. Qxe2  Nd7 17. a4  Qb8 18. h3  h6 19. Rec1  Qb7 20. Qd2  Rfc8 21. Ne2  d5 22. Ng3  Kh7 23. f3  d4 24. Bf2  bxc4 25. dxc4  a5 26. bxa5  Qc7 27. Be1  Nc5 28. Qd1  Nb7 29. Nf1  Nxa5 30. Bxa5  Qxa5 31. Ra1  Rcb8 32. f4  Rb4 33. f5  Bxc4 34. Nd2  Bd3 35. Ra3  Qa6 36. Qh5  Rb2 37. Nf3  f6 38. Nxe5  fxe5 39. Qg6+  Kh8 40. Rxc6  Rxg2+ 41. Qxg2  Qxc6 42. Rxd3  Rxa4 43. Kh2  Qa6 44. Rd2  Kh7 45. Rc2  Qf6 46. Qg3  Ra1 47. Rg2  Rc1 48. Qb3  Qh4 49. Qf3  Rc3 50. Qg4  Qxg4 51. Rxg4  Re3 52. Kg2  d3 53. Kf2  d2 0-1


[Event "Cote d'Ivoire Blitz 2019"]
[Site "Abidjan CIV"]
[Date "2019.05.12"]
[Round "10.4"]
[White "Nepomniachtchi,I"]
[Black "Ding Liren"]
[Result "1-0"]
[WhiteTitle "GM"]
[BlackTitle "GM"]
[WhiteElo "2773"]
[BlackElo "2805"]
[ECO "C91"]
[Opening "Ruy Lopez"]
[Variation "closed, Bogolyubov variation"]
[WhiteFideId "4168119"]
[BlackFideId "8603677"]
[EventDate "2019.05.11"]

1. e4 e5 2. Nf3 Nc6 3. Bb5 a6 4. Ba4 Nf6 5. O-O Be7 6. Re1 b5 7. Bb3 O-O 8. d4
d6 9. c3 Bg4 10. Be3 Bh5 11. h3 exd4 12. cxd4 d5 13. e5 Ne4 14. Nbd2 a5 15. Qb1
Nxd2 16. Nxd2 Nb4 17. f4 a4 18. Bd1 Bxd1 19. Rxd1 c5 20. dxc5 Qc7 21. Rc1 f6 22.
e6 d4 23. Bxd4 Qxf4 24. Nf3 Rfd8 25. a3 Rxd4 26. axb4 Rxb4 27. c6 Rc4 28. Rxc4
Qxc4 29. Qc1 Qxe6 30. Qc2 Rc8 31. Rc1 Bd6 32. Kh1 Bf4 33. Nd4 Qe3 34. Rd1 g6 35.
Qc5 Qe4 36. Qxb5 Be5 37. Qb7 Rc7 38. Qa8+ Kf7 39. Qh8 g5 40. Nf3 Bf4 41. Re1 Qf5
42. Qe8+ Kg7 43. Nd4 Qd3 44. Ne6+ Kh6 45. Qf8+ Kg6 46. Qe8+ Kh6 47. Nxc7 Qg3 48.
Kg1 Bxc7 49. Qe3 Qh2+ 50. Kf2 Kg6 51. Qd3+ Kh6 52. Re7 Bb6+ 53. Ke2 Qxg2+ 54.
Kd1 Qh1+ 55. Kc2 Qxc6+ 56. Kb1 f5 57. Qxf5 1-0


[Event "7th Sinquefield Cup 2019"]
[Site "Saint Louis USA"]
[Date "2019.08.23"]
[Round "6.2"]
[White "Nepomniachtchi,I"]
[Black "Ding Liren"]
[Result "1/2-1/2"]
[WhiteTitle "GM"]
[BlackTitle "GM"]
[WhiteElo "2774"]
[BlackElo "2805"]
[ECO "C50"]
[Opening "Giuoco Piano"]
[WhiteFideId "4168119"]
[BlackFideId "8603677"]
[EventDate "2019.08.17"]

1. e4 e5 2. Nf3 Nc6 3. Bc4 Bc5 4. O-O Nf6 5. d3 d6 6. c3 O-O 7. h3 a5 8. Re1 h6
9. Nbd2 Be6 10. Bb5 Qb8 11. Nh4 a4 12. Nf5 Re8 13. Nc4 Bxf5 14. exf5 Qa7 15. Qf3
e4 16. dxe4 Ne5 17. Nxe5 Rxe5 18. Bd3 d5 19. Bf4 dxe4 20. Bxe4 Rxe4 21. Rxe4
Nxe4 22. Qxe4 Bxf2+ 23. Kh2 Qb6 24. Rd1 Qxb2 25. f6 Qxc3 26. fxg7 Qc6 27. Qf5
Re8 28. Bxh6 Qxh6 29. Qxf2 Qg5 30. Kh1 Re4 31. Rf1 Qe7 32. Qd2 Kxg7 33. Qb2+ Qe5
34. Qxb7 Re1 35. Qf3 Rxf1+ 36. Qxf1 c5 37. Qc4 Qe1+ 38. Kh2 Qb4 39. Qd3 a3 40.
Qg3+ Kh7 41. Qd3+ Kg7 42. Qg3+ Kh7 43. Qd3+ Kg7 1/2-1/2


[Event "chess.com Speed 2019"]
[Site "chess.com INT"]
[Date "2019.11.18"]
[Round "2.3"]
[White "Nepomniachtchi,I"]
[Black "Ding Liren"]
[Result "1/2-1/2"]
[BlackElo "2811"]
[BlackFideId "8603677"]
[BlackTitle "GM"]
[ECO "C91"]
[EventDate "2019.09.02"]
[Opening "Ruy Lopez"]
[Variation "closed, Bogolyubov variation"]
[WhiteElo "2776"]
[WhiteFideId "4168119"]
[WhiteTitle "GM"]

1. e4 e5 2. Nf3 Nc6 3. Bb5 a6 4. Ba4 Nf6 5. O-O Be7 6. Re1 b5 7. Bb3 O-O
8. d4 d6 9. c3 Bg4 10. Be3 exd4 11. cxd4 Na5 12. Bc2 Nc4 13. Bc1 c5 14. b3 Nb6
15. h3 Bxf3 16. Qxf3 cxd4 17. Bb2 Rc8 18. Bd3 Nbd7 19. Bxd4 Ne5 20. Qd1 Nxd3
21. Qxd3 d5 22. exd5
1/2-1/2


[Event "chess.com Speed 2019"]
[Site "chess.com INT"]
[Date "2019.11.18"]
[Round "2.5"]
[White "Nepomniachtchi,I"]
[Black "Ding Liren"]
[Result "0-1"]
[BlackElo "2811"]
[BlackFideId "8603677"]
[BlackTitle "GM"]
[ECO "B12"]
[EventDate "2019.09.02"]
[Opening "Caro-Kann"]
[Variation "advance variation"]
[WhiteElo "2776"]
[WhiteFideId "4168119"]
[WhiteTitle "GM"]

1. e4 c6 2. d4 d5 3. e5 Bf5 4. Nf3 e6 5. c3 Ne7 6. Be2 Nd7 7. Nbd2 h6 8. a4 a5
9. O-O Bh7 10. Ne1 Ng6 11. Bd3 Be7 12. f4 O-O 13. Ndf3 c5 14. g4 cxd4
15. cxd4 Qb6 16. Kh1 f6 17. f5 exf5 18. gxf5 Ngxe5 19. dxe5 fxe5 20. Bb5 Bxf5
21. Qxd5+ Be6 22. Qe4 Nc5 23. Be3 Qxb5 24. Qg6 Qxf1+
0-1


[Event "chess.com Speed 2019"]
[Site "chess.com INT"]
[Date "2019.11.18"]
[Round "2.1"]
[White "Nepomniachtchi,I"]
[Black "Ding Liren"]
[Result "1-0"]
[BlackElo "2811"]
[BlackFideId "8603677"]
[BlackTitle "GM"]
[ECO "C91"]
[EventDate "2019.09.02"]
[Opening "Ruy Lopez"]
[Variation "closed, Bogolyubov variation"]
[WhiteElo "2776"]
[WhiteFideId "4168119"]
[WhiteTitle "GM"]

1. e4 e5 2. Nf3 Nc6 3. Bb5 a6 4. Ba4 Nf6 5. O-O Be7 6. Re1 b5 7. Bb3 d6
8. c3 O-O 9. d4 Bg4 10. Be3 exd4 11. cxd4 Na5 12. Bc2 Nc4 13. Bc1 c5 14. d5 Nd7
15. h3 Bxf3 16. Qxf3 Bf6 17. Nc3 b4 18. Nd1 a5 19. Qe2 Ncb6 20. Bd3 a4
21. Rb1 Ne5 22. Ne3 Nxd3 23. Qxd3 Qd7 24. Ng4 Bd4 25. Be3 h5 26. Nh2 Bf6
27. Nf3 Rfe8 28. b3 axb3 29. axb3 Ra2 30. Bf4 Bc3 31. Re3 c4 32. bxc4 Na4
33. e5 Nc5 34. Qd1 dxe5 35. Bxe5 Qf5 36. Bd4 Rxe3 37. Bxe3 Nd3 38. d6 Bf6
39. d7 Qxd7 40. Rxb4 Qf5 41. Rb8+ Kh7 42. Rb5 Qe4 43. Nd2 Qg6 44. Qxh5+ Qxh5
45. Rxh5+ Kg6 46. Rd5 Nb4 47. Rd6 Nc2 48. Ne4 Nxe3 49. fxe3 Rc2 50. Rc6 Kf5
51. Nxf6 gxf6 52. Kf1 Ke5 53. Rc7 Ke4 54. Rxf7 Kxe3 55. Re7+ Kf4 56. Rc7 Kg3
57. Rg7+ Kh2 58. Rg4 f5 59. Rf4 Rc1+ 60. Ke2 Rc2+ 61. Kd3
1-0


[Event "chess.com Speed 2019"]
[Site "chess.com INT"]
[Date "2019.11.18"]
[Round "2.9"]
[White "Nepomniachtchi,I"]
[Black "Ding Liren"]
[Result "1/2-1/2"]
[BlackElo "2811"]
[BlackFideId "8603677"]
[BlackTitle "GM"]
[ECO "C88"]
[EventDate "2019.09.02"]
[Opening "Ruy Lopez"]
[Variation "closed, anti-Marshall 8.a4"]
[WhiteElo "2776"]
[WhiteFideId "4168119"]
[WhiteTitle "GM"]

1. e4 e5 2. Nf3 Nc6 3. Bb5 a6 4. Ba4 Nf6 5. O-O Be7 6. Re1 b5 7. Bb3 O-O
8. a4 b4 9. d4 d6 10. dxe5 Nxe5 11. Nxe5 dxe5 12. Qxd8 Rxd8 13. Nd2 Bc5
14. Nf3 Ng4 15. Be3 Bxe3 16. fxe3 Rd6 17. Rad1 Be6 18. Rxd6 cxd6 19. Rd1 Rc8
20. h3 Nxe3 21. Rxd6 Bxb3 22. cxb3 f6 23. Kf2 Nc2 24. Rxa6 Na1 25. Rb6 Rc2+
26. Kg3 Rxb2 27. Rxb4 Rxb3 28. Rxb3 Nxb3 29. Kf2 Nc5 30. a5 Nxe4+ 31. Ke3 Nc5
32. Nd2 Kf7 33. Ne4 Na6 34. Kd3 f5 35. Ng5+ Kg6 36. Ne6 Kf6 37. Nf8 h5
38. Kc4 e4 39. Kd4 g5 40. Nd7+ Ke6 41. Ne5 h4 42. Nc4 g4 43. hxg4 fxg4
1/2-1/2


[Event "chess.com Speed 2019"]
[Site "chess.com INT"]
[Date "2019.11.18"]
[Round "2.11"]
[White "Nepomniachtchi,I"]
[Black "Ding Liren"]
[Result "1/2-1/2"]
[BlackElo "2811"]
[BlackFideId "8603677"]
[BlackTitle "GM"]
[ECO "B90"]
[EventDate "2019.09.02"]
[Opening "Sicilian"]
[Variation "Najdorf"]
[WhiteElo "2776"]
[WhiteFideId "4168119"]
[WhiteTitle "GM"]

1. e4 c5 2. Nf3 d6 3. d4 cxd4 4. Nxd4 Nf6 5. Nc3 a6 6. Bd3 e5 7. Nde2 Be7
8. O-O Nc6 9. Ng3 Be6 10. a3 Rc8 11. Re1 h6 12. Nf1 d5 13. exd5 Nxd5
14. Nxd5 Qxd5 15. Ne3 Qd7 16. Qh5 g6 17. Qd1 O-O 18. Nc4 Bxc4 19. Bxc4 Qxd1
20. Rxd1 Nd4 21. Bd3 Nxc2 22. Bxc2 Rxc2 23. Bxh6 Rfc8 24. Rac1 g5 25. Rxc2 Rxc2
26. h4 gxh4 27. b4 Ra2 28. Rd7 Bf6 29. Rxb7 Rxa3 30. Rb6 Be7 31. Rb7 Bf6
32. Rb6 Be7 33. Rb7 Bf6
1/2-1/2


[Event "chess.com Speed 2019"]
[Site "chess.com INT"]
[Date "2019.11.18"]
[Round "2.7"]
[White "Nepomniachtchi,I"]
[Black "Ding Liren"]
[Result "1/2-1/2"]
[BlackElo "2811"]
[BlackFideId "8603677"]
[BlackTitle "GM"]
[ECO "C91"]
[EventDate "2019.09.02"]
[Opening "Ruy Lopez"]
[Variation "closed, Bogolyubov variation"]
[WhiteElo "2776"]
[WhiteFideId "4168119"]
[WhiteTitle "GM"]

1. e4 e5 2. Nf3 Nc6 3. Bb5 a6 4. Ba4 Nf6 5. O-O Be7 6. Re1 b5 7. Bb3 O-O
8. d4 d6 9. c3 Bg4 10. Be3 Bh5 11. h3 exd4 12. cxd4 Na5 13. Bc2 Nc4 14. Bc1 c5
15. b3 Nb6 16. Nbd2 Rc8 17. a4 bxa4 18. d5 Nfd7 19. bxa4 Bf6 20. Rb1 Bc3
21. Re3 Bxd2 22. Bxd2 Nc4 23. Rc3 Nxd2 24. Qxd2 Bxf3 25. Rxf3 c4 26. Qc3 Rb8
27. Rxb8 Qxb8 28. Rg3 g6 29. Qxc4 Rc8 30. Qb3 Qxb3 31. Bxb3 Rc1+ 32. Kh2 Nc5
33. Re3 a5 34. e5 dxe5 35. d6 Nxb3 36. Rxb3 Rd1 37. Rb5 e4 38. Rxa5 Rxd6
39. Re5 Rd4 40. a5 Ra4 41. g4 h6 42. h4 e3 43. Rxe3 Rxa5
1/2-1/2


[Event "chess.com Speed 2019"]
[Site "chess.com INT"]
[Date "2019.11.18"]
[Round "2.13"]
[White "Nepomniachtchi,I"]
[Black "Ding Liren"]
[Result "1-0"]
[BlackElo "2811"]
[BlackFideId "8603677"]
[BlackTitle "GM"]
[ECO "C91"]
[EventDate "2019.09.02"]
[Opening "Ruy Lopez"]
[Variation "closed, Bogolyubov variation"]
[WhiteElo "2776"]
[WhiteFideId "4168119"]
[WhiteTitle "GM"]

1. e4 e5 2. Nf3 Nc6 3. Bb5 a6 4. Ba4 Nf6 5. O-O Be7 6. Re1 b5 7. Bb3 d6
8. c3 O-O 9. d4 Bg4 10. Be3 Bh5 11. h3 exd4 12. cxd4 Na5 13. Bc2 Nc4 14. Bc1 c5
15. b3 Nb6 16. Nbd2 Re8 17. a4 bxa4 18. bxa4 cxd4 19. g4 Bg6 20. Nxd4 Bf8
21. Nf5 Nbd7 22. Nf1 d5 23. exd5 Rxe1 24. Qxe1 Rc8 25. Qd1 Nxd5 26. N1g3 Ne5
27. Bb3 Nb4 28. Qxd8 Rxd8 29. Bf4 Ned3 30. Be3 Rc8 31. h4 Rc3 32. Nd4 Bc5
33. Nge2 Bxd4 34. Nxd4 h5 35. Bd2 Rc8 36. Nf5 Re8 37. Ng3 hxg4 38. h5 Bh7
39. Rd1 a5 40. Bc3 Be4 41. Bxb4 Nxb4 42. Rd7 Kh7 43. Bxf7
1-0


[Event "chess.com Speed 2019"]
[Site "chess.com INT"]
[Date "2019.11.18"]
[Round "2.23"]
[White "Nepomniachtchi,I"]
[Black "Ding Liren"]
[Result "1-0"]
[BlackElo "2811"]
[BlackFideId "8603677"]
[BlackTitle "GM"]
[ECO "B94"]
[EventDate "2019.09.02"]
[Opening "Sicilian"]
[Variation "Najdorf, 6.Bg5"]
[WhiteElo "2776"]
[WhiteFideId "4168119"]
[WhiteTitle "GM"]

1. e4 c5 2. Nf3 d6 3. d4 cxd4 4. Nxd4 Nf6 5. Nc3 a6 6. Bg5 Nbd7 7. Bc4 e6
8. Qe2 b5 9. Bb3 Nc5 10. O-O-O h6 11. Bh4 Bb7 12. e5 g5 13. Bg3 Nfe4
14. Nxe4 Nxe4 15. exd6 Bg7 16. d7+ Kf8 17. Rhe1 Qb6 18. Nxe6+ fxe6 19. Qf3+ Ke7
20. Rxe4 Bxe4 21. Qxe4
1-0


[Event "chess.com Speed 2019"]
[Site "chess.com INT"]
[Date "2019.11.18"]
[Round "2.15"]
[White "Nepomniachtchi,I"]
[Black "Ding Liren"]
[Result "1-0"]
[BlackElo "2811"]
[BlackFideId "8603677"]
[BlackTitle "GM"]
[ECO "C91"]
[EventDate "2019.09.02"]
[Opening "Ruy Lopez"]
[Variation "closed, Bogolyubov variation"]
[WhiteElo "2776"]
[WhiteFideId "4168119"]
[WhiteTitle "GM"]

1. e4 e5 2. Nf3 Nc6 3. Bb5 a6 4. Ba4 Nf6 5. O-O Be7 6. Re1 b5 7. Bb3 d6
8. c3 O-O 9. d4 Bg4 10. Be3 Bh5 11. Nbd2 exd4 12. cxd4 Na5 13. Bc2 c5
14. h3 cxd4 15. Bxd4 Nc6 16. Be3 d5 17. Rc1 Rc8 18. exd5 Nxd5 19. Bf5 Rc7
20. Qb3 Nxe3 21. Qxe3 Bf6 22. Qb6 Qd6 23. Ne4 Qf4 24. Nxf6+ gxf6 25. Rxc6 Rxc6
26. Qxc6 Qxf5 27. g4 Bxg4 28. hxg4 Qxg4+ 29. Kh1 Rc8 30. Qxf6
1-0


[Event "chess.com Speed 2019"]
[Site "chess.com INT"]
[Date "2019.11.18"]
[Round "2.17"]
[White "Nepomniachtchi,I"]
[Black "Ding Liren"]
[Result "1/2-1/2"]
[BlackElo "2811"]
[BlackFideId "8603677"]
[BlackTitle "GM"]
[ECO "B92"]
[EventDate "2019.09.02"]
[Opening "Sicilian"]
[Variation "Najdorf, Opovcensky variation"]
[WhiteElo "2776"]
[WhiteFideId "4168119"]
[WhiteTitle "GM"]

1. e4 c5 2. Nf3 d6 3. d4 cxd4 4. Nxd4 Nf6 5. Nc3 a6 6. Be2 e5 7. Nf3 Be7
8. a4 O-O 9. Bg5 Be6 10. Bxf6 Bxf6 11. O-O Be7 12. Nd2 Nd7 13. Bc4 Rc8
14. Nd5 Nb6 15. Nxe7+ Qxe7 16. Bxe6 Qxe6 17. a5 Nd7 18. c4 Rc6 19. Ra3 Rb8
20. Rd3 b5 21. axb6 Rcxb6 22. b3 Nc5 23. Rd5 h6 24. Qa1 Qg6 25. Re1 Nxb3
26. Nxb3 Rxb3 27. g3 R8b6 28. c5 dxc5 29. Qxe5 Rb1 30. Rxb1 Rxb1+ 31. Kg2 Re1
32. Rd8+ Kh7 33. Re8 c4 34. h4 h5 35. Qb8 Qc6 36. Qe5 Qb5 37. Qe7 c3
38. Qxf7 Qf1+ 39. Kf3 Qe2+ 40. Kg2 Qf1+ 41. Kf3 Qe2+ 42. Kg2 Qf1+
1/2-1/2


[Event "chess.com Speed 2019"]
[Site "chess.com INT"]
[Date "2019.11.18"]
[Round "2.19"]
[White "Nepomniachtchi,I"]
[Black "Ding Liren"]
[Result "1-0"]
[BlackElo "2811"]
[BlackFideId "8603677"]
[BlackTitle "GM"]
[ECO "B94"]
[EventDate "2019.09.02"]
[Opening "Sicilian"]
[Variation "Najdorf, 6.Bg5"]
[WhiteElo "2776"]
[WhiteFideId "4168119"]
[WhiteTitle "GM"]

1. e4 c5 2. Nf3 d6 3. d4 cxd4 4. Nxd4 Nf6 5. Nc3 a6 6. Bg5 Nbd7 7. Bc4 Qb6
8. Bb3 e6 9. Qd2 Be7 10. O-O-O Nc5 11. Rhe1 O-O 12. f4 h6 13. h4 Qc7 14. g4 Nxg4
15. Qg2 h5 16. Nf5 Bxg5 17. hxg5 exf5 18. Nd5 Qd8 19. exf5 Re8 20. f6 Be6
21. Ne7+ Rxe7 22. fxe7 Nxb3+ 23. axb3 Qxe7 24. Kb1 Qc7 25. Qe4 g6 26. Qd4 Rc8
27. Rd2 d5 28. Rde2 Qc5 29. Qd2 a5 30. Ka1 Kg7 31. c3 d4 32. Rxe6 fxe6
33. Rxe6 Kf7 34. Re4 Rd8 35. cxd4 Qc6 36. Re1 Qd5 37. Qe2 Qxd4 38. Qe6+ Kg7
39. Qe7+ Kg8 40. Re6 Qd3 41. f5 Ne5 42. Rxe5 a4 43. Qe6+
1-0


[Event "chess.com Speed 2019"]
[Site "chess.com INT"]
[Date "2019.11.18"]
[Round "2.21"]
[White "Nepomniachtchi,I"]
[Black "Ding Liren"]
[Result "1/2-1/2"]
[BlackElo "2811"]
[BlackFideId "8603677"]
[BlackTitle "GM"]
[ECO "B94"]
[EventDate "2019.09.02"]
[Opening "Sicilian"]
[Variation "Najdorf, 6.Bg5"]
[WhiteElo "2776"]
[WhiteFideId "4168119"]
[WhiteTitle "GM"]

1. e4 c5 2. Nf3 d6 3. d4 cxd4 4. Nxd4 Nf6 5. Nc3 a6 6. Bg5 Nbd7 7. Bc4 Qb6
8. Bb3 e6 9. Qd2 Be7 10. O-O-O Nc5 11. Rhe1 O-O 12. f4 h6 13. h4 Qc7 14. g4 Nxg4
15. Nf5 hxg5 16. Nxe7+ Qxe7 17. hxg5 f5 18. exf5 Rxf5 19. Rg1 Bd7 20. Rxg4 Bc6
21. Rh4 Raf8 22. Qh2 Kf7 23. Ne2 Bf3 24. Nd4 Nxb3+ 25. axb3 Bxd1 26. Nxf5 exf5
27. Kxd1 Qe4 28. Rh3 Re8 29. Qf2 d5 30. Rd3 Qh1+ 31. Kd2 Rh8 32. Qc5 Rh2+
33. Kc3 Qe1+ 34. Kd4 Qe4+ 35. Kc3 Qe1+ 36. Kd4 Qe4+ 37. Kc3 Qe1+
1/2-1/2


[Event "chess.com Speed 2019"]
[Site "chess.com INT"]
[Date "2019.11.18"]
[Round "2.25"]
[White "Nepomniachtchi,I"]
[Black "Ding Liren"]
[Result "1-0"]
[BlackElo "2811"]
[BlackFideId "8603677"]
[BlackTitle "GM"]
[ECO "C91"]
[EventDate "2019.09.02"]
[Opening "Ruy Lopez"]
[Variation "closed, Bogolyubov variation"]
[WhiteElo "2776"]
[WhiteFideId "4168119"]
[WhiteTitle "GM"]

1. e4 e5 2. Nf3 Nc6 3. Bb5 a6 4. Ba4 Nf6 5. O-O Be7 6. Re1 b5 7. Bb3 d6
8. c3 O-O 9. d4 Bg4 10. Be3 exd4 11. cxd4 Na5 12. Bc2 Nc4 13. Bc1 c5 14. b3 Nb6
15. Nbd2 Rc8 16. a4 bxa4 17. d5 Nfd7 18. bxa4 Bf6 19. Rb1 Bc3 20. h3 Bh5
21. g4 Bg6 22. Re3 Bb4 23. Nf1 Nc4 24. Re2 Nde5 25. Nxe5 dxe5 26. Ng3 Nd6
27. g5 f6 28. h4 fxg5 29. Bxg5 Qd7 30. Kg2 Qg4 31. Re3 Qxd1 32. Bxd1 c4 33. Rxb4
1-0


[Event "chess.com Speed 2019"]
[Site "chess.com INT"]
[Date "2019.11.18"]
[Round "2.27"]
[White "Nepomniachtchi,I"]
[Black "Ding Liren"]
[Result "1/2-1/2"]
[BlackElo "2811"]
[BlackFideId "8603677"]
[BlackTitle "GM"]
[ECO "C67"]
[EventDate "2019.09.02"]
[Opening "Ruy Lopez"]
[Variation "Berlin defence, open variation"]
[WhiteElo "2776"]
[WhiteFideId "4168119"]
[WhiteTitle "GM"]

1. e4 e5 2. Nf3 Nc6 3. Bb5 Nf6 4. O-O Nxe4 5. Re1 Nd6 6. Nxe5 Be7 7. Bf1 Nxe5
8. Rxe5 O-O 9. d4 Bf6 10. Nc3 Bxe5 11. dxe5 Nf5 12. Bd3 d6 13. Qf3 Nh4
14. Qh5 Ng6 15. exd6 Qxd6 16. Be3 Be6 17. Bc5 Qf4 18. Bxf8 Nxf8 19. Re1 Rd8
20. h3 Qd2 21. Qe2 Qxe2 22. Rxe2 Nd7 23. Ne4 Ne5 24. Nc5 Nxd3 25. Nxe6 fxe6
26. cxd3 Rxd3 27. Rxe6 Rd1+ 28. Kh2 Rd2 29. Re7 Rxf2 30. Rxc7 Rxb2 31. a4 a5
32. h4 h5 33. Kh3 Kh7 34. Rd7 b6 35. g3 Rb4 36. Rd6 g6 37. Rd7+ Kh6 38. Rb7 Rxa4
39. Rxb6 Ra2 40. Rb7 a4 41. Ra7 a3 42. g4 hxg4+ 43. Kxg4 Rg2+ 44. Kh3 Ra2
45. Kg4 Ra1 46. Kh3 a2 47. Kg2 Kh5 48. Ra4 g5 49. hxg5
1/2-1/2


[Event "chess.com Speed 2019"]
[Site "chess.com INT"]
[Date "2019.11.18"]
[Round "2.29"]
[White "Nepomniachtchi,I"]
[Black "Ding Liren"]
[Result "1-0"]
[BlackElo "2811"]
[BlackFideId "8603677"]
[BlackTitle "GM"]
[ECO "C22"]
[EventDate "2019.09.02"]
[Opening "Centre game"]
[Variation "Berger variation"]
[WhiteElo "2776"]
[WhiteFideId "4168119"]
[WhiteTitle "GM"]

1. e4 e5 2. d4 exd4 3. Qxd4 Nc6 4. Qe3 Nf6 5. Nc3 Bb4 6. Bd2 O-O 7. O-O-O Re8
8. Qg3 Rxe4 9. a3 Rg4 10. Qh3 Bc5 11. f3 Rd4 12. g4 d5 13. Bd3 Ne5 14. Bg5 h6
15. Bxf6 Qxf6 16. Nge2 Nxd3+ 17. cxd3 c6 18. Qg3 b5 19. h4 b4 20. g5 Qg6
21. Na4 Bd6 22. f4 c5 23. Nxd4 cxd4 24. axb4 Bxb4 25. Kb1 Bd7 26. h5 Qa6
27. gxh6 Qxh6 28. Rc1 Bxa4 29. Rhg1 Bd7 30. Rc7 Bf5 31. Rb7 a5 32. Ka1
1-0


[Event "chess.com Speed 2019"]
[Site "chess.com INT"]
[Date "2019.11.18"]
[Round "2.31"]
[White "Nepomniachtchi,I"]
[Black "Ding Liren"]
[Result "0-1"]
[BlackElo "2811"]
[BlackFideId "8603677"]
[BlackTitle "GM"]
[ECO "C33"]
[EventDate "2019.09.02"]
[Opening "KGA"]
[Variation "Villemson (Steinitz) gambit"]
[WhiteElo "2776"]
[WhiteFideId "4168119"]
[WhiteTitle "GM"]

1. e4 e5 2. f4 exf4 3. d4 d5 4. exd5 Qh4+ 5. Ke2 Bd6 6. Nf3 Bg4 7. c4 b6
8. Qe1 Qh5 9. h3 Ne7 10. Nc3 O-O 11. hxg4 Qxh1 12. Kd2 Nd7 13. Kc2 Rae8
14. Qf2 Nf6 15. Ne5 Ng6 16. Bxf4 Nxe5 17. dxe5 Nxg4 18. Qg3 Nxe5 19. Rd1 Qh5
20. a3 Qf5+ 21. Kb3 Nxc4 22. Bh6 Bxg3
0-1[Event "RUS-CHN Match Standard"]
[Site "Sochi RUS"]
[Date "2009.08.16"]
[Round "2"]
[White "Nepomniachtchi, I."]
[Black "Ding Liren"]
[Result "1/2-1/2"]
[ECO "C10"]
[WhiteElo "2632"]
[BlackElo "2530"]
[PlyCount "63"]
[EventDate "2009.08.15"]
[EventRounds "5"]
[EventCountry "RUS"]
[Source "Mark Crowther"]
[SourceDate "2009.06.15"]

1. e4 e6 2. d4 d5 3. Nc3 dxe4 4. Nxe4 Nd7 5. Nf3 Ngf6 6. Nxf6+ Nxf6 7. Be3 Nd5
8. Bd2 c5 9. Bb5+ Bd7 10. Bxd7+ Qxd7 11. c4 Nb6 12. Rc1 Be7 13. dxc5 Bxc5 14.
b4 Be7 15. c5 Nd5 16. Ne5 Qc7 17. Qa4+ Kf8 18. Nc4 h5 19. O-O h4 20. h3 Rh5 21.
Rfe1 a6 22. Qd1 Rf5 23. Qe2 Rd8 24. a3 Kg8 25. Ne5 Bf6 26. Nf3 Qc6 27. Rcd1 Qa4
28. Bc1 Rd7 29. Qd3 Nb6 30. Qe2 Nd5 31. Qd3 Nb6 32. Qe2 1/2-1/2


[Event "RUS-CHN Match Rapid"]
[Site "Sochi RUS"]
[Date "2009.08.21"]
[Round "2"]
[White "Ding Liren"]
[Black "Nepomniachtchi, I."]
[Result "0-1"]
[ECO "A57"]
[WhiteElo "2530"]
[BlackElo "2632"]
[PlyCount "108"]
[EventDate "2009.08.21"]
[EventType "rapid"]
[EventRounds "10"]
[EventCountry "RUS"]
[Source "Mark Crowther"]
[SourceDate "2009.06.15"]

1. d4 Nf6 2. c4 c5 3. d5 b5 4. Nf3 g6 5. Qc2 bxc4 6. e4 Bg7 7. Bxc4 d6 8. O-O
O-O 9. Nc3 Nbd7 10. h3 Rb8 11. Re1 Nb6 12. Bf1 Bb7 13. Bf4 Qc8 14. Rad1 Ba6 15.
Bxa6 Qxa6 16. e5 Ne8 17. b3 Rd8 18. Bg5 f6 19. exf6 exf6 20. Bf4 Qc8 21. Bg3
Qd7 22. Re6 Nc8 23. Rde1 Nc7 24. R6e2 Qf7 25. Qd3 h6 26. Bf4 f5 27. h4 Rfe8 28.
Bd2 Rxe2 29. Rxe2 Nb6 30. g3 Ncxd5 31. Nxd5 Qxd5 32. Qxd5+ Nxd5 33. Ba5 Rd7 34.
Ne1 Kf7 35. Rd2 Nf6 36. f3 Ng8 37. Rd3 Ne7 38. Bc3 Bxc3 39. Rxc3 Nc6 40. Nc2 a5
41. Kf2 Ra7 42. a3 Rb7 43. g4 f4 44. Ke2 Ke6 45. Kd2 g5 46. h5 Ne5 47. Ne1 a4
48. bxa4 Ra7 49. Rb3 Rxa4 50. Nc2 Ra6 51. Ke2 d5 52. Rb8 d4 53. Re8+ Kd5 54.
Rd8+ Kc4 0-1


[Event "RUS-CHN Match Rapid"]
[Site "Sochi RUS"]
[Date "2009.08.22"]
[Round "7"]
[White "Nepomniachtchi, I."]
[Black "Ding Liren"]
[Result "1-0"]
[ECO "C10"]
[WhiteElo "2632"]
[BlackElo "2530"]
[PlyCount "97"]
[EventDate "2009.08.21"]
[EventType "rapid"]
[EventRounds "10"]
[EventCountry "RUS"]
[Source "Mark Crowther"]
[SourceDate "2009.06.15"]

1. e4 e6 2. d4 d5 3. Nc3 dxe4 4. Nxe4 Nd7 5. Nf3 Ngf6 6. Bg5 h6 7. Nxf6+ Nxf6
8. Be3 Nd5 9. Bd2 c5 10. Ne5 a6 11. c3 cxd4 12. Qa4+ Bd7 13. Qxd4 Rc8 14. Nxd7
Qxd7 15. g3 f5 16. Bg2 Bc5 17. Qd3 b5 18. O-O Kf7 19. a4 Rhd8 20. axb5 axb5 21.
Qe2 Nf6 22. Rfd1 Qd3 23. Qxd3 Rxd3 24. Bf1 Rd6 25. Be1 Rxd1 26. Rxd1 Rb8 27. b4
Be7 28. Ra1 Ne4 29. f3 Nd6 30. Ra7 Rc8 31. Bf2 Rxc3 32. Bc5 Ke8 33. Bxb5+ Nxb5
34. Rxe7+ Kd8 35. Rxe6 Rxf3 36. Rg6 f4 37. Kg2 Rd3 38. gxf4 Rd7 39. Kf3 Ke8 40.
Rb6 Nc3 41. Rd6 Rb7 42. f5 Kf7 43. Rd8 g5 44. Rf8+ Kg7 45. f6+ Kh7 46. Kg4 Nd5
47. Kf5 Nxb4 48. f7 Kg7 49. Ke4 1-0


[Event "RUS-CHN Match Blitz"]
[Site "Sochi RUS"]
[Date "2009.08.23"]
[Round "2"]
[White "Nepomniachtchi, I."]
[Black "Ding Liren"]
[Result "1-0"]
[ECO "C11"]
[WhiteElo "2632"]
[BlackElo "2530"]
[PlyCount "79"]
[EventDate "2009.08.23"]
[EventType "blitz"]
[EventRounds "10"]
[EventCountry "RUS"]
[Source "Mark Crowther"]
[SourceDate "2009.06.15"]

1. e4 e6 2. Nc3 d5 3. Nf3 Nf6 4. e5 Nfd7 5. d4 c5 6. dxc5 Nc6 7. Bf4 Nxc5 8. h4
a6 9. a3 b5 10. h5 h6 11. Rh3 Bb7 12. b4 Ne4 13. Nxe4 dxe4 14. Nd2 Qd4 15. c3
Qd5 16. c4 bxc4 17. Nxc4 Rd8 18. Nb6 Qxd1+ 19. Rxd1 Be7 20. Rg3 Rxd1+ 21. Kxd1
Bg5 22. Bxg5 hxg5 23. Rxg5 Rh7 24. Nc4 f6 25. exf6 gxf6 26. Rc5 Kd7 27. g4 e5
28. Ne3 Nd4 29. Ra5 Kd6 30. Bxa6 Bc6 31. Bc4 f5 32. Nxf5+ Nxf5 33. gxf5 Rxh5
34. f6 Rf5 35. Ra6 Kc7 36. Ke1 Bb7 37. Re6 Bc8 38. Re7+ Kd6 39. Re8 Bd7 40. f7
1-0


[Event "RUS-CHN Match Blitz"]
[Site "Sochi RUS"]
[Date "2009.08.23"]
[Round "7"]
[White "Ding Liren"]
[Black "Nepomniachtchi, I."]
[Result "0-1"]
[ECO "D95"]
[WhiteElo "2530"]
[BlackElo "2632"]
[PlyCount "108"]
[EventDate "2009.08.23"]
[EventType "blitz"]
[EventRounds "10"]
[EventCountry "RUS"]
[Source "Mark Crowther"]
[SourceDate "2009.06.15"]

1. d4 Nf6 2. Nf3 g6 3. c4 Bg7 4. Nc3 d5 5. e3 Nc6 6. Qb3 dxc4 7. Bxc4 O-O 8.
Be2 a6 9. O-O b5 10. Rd1 Bb7 11. d5 Na5 12. Qb4 c6 13. a4 Nxd5 14. Nxd5 cxd5
15. axb5 axb5 16. Qxb5 Ba6 17. Qxa5 Bxe2 18. Qxa8 Bxd1 19. Qxd8 Rxd8 20. Nd4 e5
21. Nc6 Re8 22. Bd2 Be2 23. Bc3 f6 24. f4 Bb5 25. Nb4 d4 26. exd4 exf4 27. Ra5
Be2 28. Nd5 g5 29. Ra7 Bc4 30. Ne7+ Kh8 31. Nf5 Bf8 32. Rc7 Bd3 33. g4 h5 34.
d5 hxg4 35. Bxf6+ Kg8 36. Ne7+ Kf7 37. d6 Kxf6 38. d7 Rd8 39. Nc6 Bc5+ 40. Kg2
Bb6 41. Rb7 Be4+ 42. Kf1 Bxc6 43. Rxb6 Rxd7 44. Rxc6+ Kf5 45. Rc5+ Ke4 46. Rxg5
Kf3 47. Ke1 Rb7 48. Rc5 Rxb2 49. Rc3+ Kg2 50. Rc4 Kxh2 51. Rxf4 g3 52. Rh4+ Kg1
53. Rh3 g2 54. Rh4 Rb8 0-1


[Event "8th RUS-CHN Summit Men Classical"]
[Site "St Petersburg RUS"]
[Date "2012.07.06"]
[Round "5"]
[White "Nepomniachtchi, I."]
[Black "Ding Liren"]
[Result "1/2-1/2"]
[ECO "C11"]
[WhiteElo "2718"]
[BlackElo "2680"]
[PlyCount "103"]
[EventDate "2012.07.02"]
[EventType "team"]
[EventRounds "5"]
[EventCountry "RUS"]
[Source "Mark Crowther"]
[SourceDate "2012.07.09"]

1. e4 e6 2. d4 d5 3. Nc3 Nf6 4. e5 Nfd7 5. f4 c5 6. Nf3 Nc6 7. Be3 a6 8. Qd2 b5
9. Nd1 Be7 10. Bd3 c4 11. Be2 Qa5 12. c3 b4 13. O-O Nb6 14. Bf2 Rb8 15. Bh4
bxc3 16. bxc3 Na4 17. Bxe7 Nxe7 18. Qc1 O-O 19. Qa3 Nc6 20. Qc1 Na7 21. Qe3 Bd7
22. h4 Nb2 23. h5 Ba4 24. Nf2 Bc2 25. h6 g6 26. Ng4 Nb5 27. Rfc1 Bd3 28. Bxd3
Nxd3 29. Nf6+ Kh8 30. Nd7 Nxc1 31. Rxc1 Qc7 32. Nf6 Qe7 33. Ng5 Nc7 34. Ngxh7
Rfd8 35. Qe1 Ne8 36. Nxe8 Kxh7 37. Nf6+ Kh8 38. Rc2 Rb5 39. Kh2 Rdb8 40. Qg3
Rb1 41. f5 exf5 42. Nxd5 Qf8 43. Qg5 Re1 44. Rc1 Re2 45. Rf1 Qd8 46. Ne7 Qf8
47. Nd5 Qd8 48. Nf6 Rbb2 49. Rg1 Rb6 50. Ne4 Qxg5 51. Nxg5 Rb7 52. Rd1 1/2-1/2


[Event "8th RUS-CHN Summit Men Rapid"]
[Site "St Petersburg RUS"]
[Date "2012.07.07"]
[Round "5"]
[White "Nepomniachtchi, I."]
[Black "Ding Liren"]
[Result "1-0"]
[ECO "C11"]
[WhiteElo "2718"]
[BlackElo "2680"]
[PlyCount "121"]
[EventDate "2012.07.07"]
[EventType "team (rapid)"]
[EventRounds "10"]
[EventCountry "RUS"]
[Source "Mark Crowther"]
[SourceDate "2012.07.09"]

1. e4 e6 2. d4 d5 3. Nc3 Nf6 4. e5 Nfd7 5. Nf3 c5 6. dxc5 Nc6 7. Bf4 Nxc5 8. h4
Be7 9. h5 f5 10. Rh3 O-O 11. Nb5 Ne4 12. c3 Qb6 13. Be3 Qa5 14. Nbd4 f4 15. Bd2
Qc7 16. Nxc6 bxc6 17. Bd3 Bc5 18. Qc2 Bxf2+ 19. Kd1 Rb8 20. b3 c5 21. Bxe4 dxe4
22. Qxe4 Bb7 23. Qe2 Bg3 24. Kc2 c4 25. Nd4 Bd5 26. b4 a5 27. b5 Qb7 28. Rg1
Be4+ 29. Kb2 Qd5 30. a4 Bd3 31. Qf3 Qxe5 32. Rhh1 Be4 33. Qg4 Rfd8 34. h6 g6
35. Rh5 Bf5 36. Rxf5 exf5 37. Qf3 Qe4 38. Rf1 Re8 39. Bxf4 Bxf4 40. Qxf4 Qxg2+
41. Rf2 Qd5 42. Qc7 Rb7 43. Qxa5 Qc5 44. Qa6 Ra7 45. Qf6 Qf8 46. Qxf8+ Kxf8 47.
Ka3 Rea8 48. Ne6+ Ke7 49. Nc5 Rb8 50. Kb4 Kf6 51. a5 g5 52. b6 g4 53. Kxc4 Re7
54. Ra2 g3 55. a6 f4 56. b7 f3 57. a7 f2 58. axb8=Q f1=Q+ 59. Kb4 Qb1+ 60. Ka3
Qc1+ 61. Ka4 1-0


[Event "8th RUS-CHN Summit Men Rapid"]
[Site "St Petersburg RUS"]
[Date "2012.07.08"]
[Round "10"]
[White "Ding Liren"]
[Black "Nepomniachtchi, I."]
[Result "0-1"]
[ECO "D02"]
[WhiteElo "2680"]
[BlackElo "2718"]
[PlyCount "102"]
[EventDate "2012.07.07"]
[EventType "team (rapid)"]
[EventRounds "10"]
[EventCountry "RUS"]
[Source "Mark Crowther"]
[SourceDate "2012.07.09"]

1. Nf3 d5 2. d4 Nc6 3. c4 Bg4 4. Nc3 e6 5. cxd5 exd5 6. Bf4 Nf6 7. e3 Bd6 8.
Bg5 Ne7 9. Be2 c6 10. Bxf6 gxf6 11. Nh4 Be6 12. Bd3 Qb6 13. Rb1 c5 14. dxc5
Bxc5 15. O-O Bd6 16. Bb5+ Nc6 17. Rc1 a6 18. Ba4 O-O-O 19. Bxc6 bxc6 20. Na4
Qb5 21. Nf3 Bg4 22. Nc3 Qb7 23. h3 Bh5 24. Qc2 Bg6 25. Qa4 Kb8 26. Ne2 Qb5 27.
Qd1 c5 28. b4 c4 29. Nfd4 Qb7 30. Qa4 Rc8 31. b5 axb5 32. Nxb5 Bc5 33. Ned4 Qa8
34. Qd1 Qa6 35. Qf3 Bxd4 36. Nxd4 Rhd8 37. Rc3 Be4 38. Qf4+ Qd6 39. Qh4 Rg8 40.
f3 Bd3 41. Rf2 Ka8 42. Nb5 Qe5 43. Rb2 Kb7 44. Qe1 Rb8 45. Qc1 Kc6 46. Rxd3
Rxb5 47. Rxb5 Kxb5 48. Ra3 Rb8 49. Ra7 Kc6 50. Rxf7 Qb2 51. Qf1 Qc2 0-1


[Event "Breisacher Memorial"]
[Site "Biel SUI"]
[Date "2013.07.26"]
[Round "5.3"]
[White "Nepomniachtchi, I."]
[Black "Ding Liren"]
[Result "1/2-1/2"]
[ECO "E90"]
[WhiteElo "2717"]
[BlackElo "2714"]
[PlyCount "131"]
[EventDate "2012.07.22"]
[EventType "tourn"]
[EventRounds "10"]
[EventCountry "SUI"]
[EventCategory "19"]
[Source "Mark Crowther"]
[SourceDate "2013.07.29"]
[BlackTeamCountry "USA"]

1. d4 Nf6 2. c4 g6 3. Nc3 Bg7 4. e4 d6 5. Nf3 O-O 6. h3 Na6 7. Bg5 Qe8 8. g4 c6
9. Bg2 e5 10. Be3 exd4 11. Nxd4 Nc5 12. f3 Nfd7 13. Qe2 Nb6 14. Rd1 f5 15. exf5
gxf5 16. b3 h5 17. gxh5 Qxh5 18. f4 Qh6 19. O-O Bd7 20. Qd2 Be8 21. Nde2 Bh5
22. Qxd6 Ne6 23. Bf3 Rf6 24. Qd2 Rg6+ 25. Kh2 Bg4 26. Ng1 Rd8 27. Qe1 Rd7 28.
Nce2 Bc3 29. Qg3 Bf6 30. Rxd7 Nxd7 31. Bxg4 Rxg4 32. Qf3 Rg7 33. Ng3 Qg6 34.
Nh5 Rh7 35. Qg3 Kf7 36. Qxg6+ Kxg6 37. Nxf6 Nxf6 38. Kg2 Ne4 39. Nf3 Kh5 40.
Nd2 Rg7+ 41. Kh2 Nxd2 42. Bxd2 Rd7 43. Be3 a6 44. Kg2 Rd3 45. Re1 Rc3 46. Re2
a5 47. Kf2 a4 48. Rd2 axb3 49. axb3 Rxb3 50. Rd6 Nf8 51. Rf6 Nh7 52. Rxf5+ Kg6
53. Re5 Nf6 54. f5+ Kf7 55. Re6 Ne8 56. Rh6 Rb4 57. Bg5 Rxc4 58. Kf3 Rc5 59.
Rh7+ Kg8 60. Rxb7 Rxf5+ 61. Kg4 Rf7 62. Rb8 Rf8 63. Rd8 Kg7 64. Kg3 Rf5 65. h4
Nf6 66. Bxf6+ 1/2-1/2