[Event "2019-grand-chess-tour-tata-steel"]
[White "Ding, Liren"]
[Black "Nepomniachtchi, Ian"]
[WhiteFideId "8603677"]
[BlackFideId "4168119"]
[Result "1/2-1/2"]
[Round "16"]
[Date "Mon Nov 25 2019"]
[WhiteClock "0:00:07"]
[BlackClock "0:00:01"]


1. Nf3  c5 2. c4  Nc6 3. Nc3  g6 4. e3  Nf6 5. d4  cxd4 6. exd4  d5 7. cxd5  Nxd5 8. Qb3  e6 9. Bb5  Bg7 10. O-O  O-O 11. Bxc6  bxc6 12. Re1  Qc7 13. h3  Rb8 14. Qd1  Ne7 15. Ne5  c5 16. Bf4  cxd4 17. Nxg6  e5 18. Nxe5  dxc3 19. Ng6  cxb2 20. Rb1  Nxg6 21. Bxc7  Rb7 22. Bd6  Rd8 23. Qc2  Be6 24. Ba3  Rdb8 25. Rxe6  fxe6 26. Qe4  Rb6 27. Bc5  Ra6 28. Bd4  Bxd4 29. Qxd4  Rxa2 30. Kh2  Kf7 31. Qc4  Ra1 32. Qc7+  Ne7 33. Qf4+  Kg6 34. Qxb8  Rxb1 35. Qb3  Kf7 36. Qc2  Rc1 37. Qxb2  Rc5 38. Qd4  Ra5 39. g4  h5 40. Kg3  hxg4 41. hxg4  a6 42. f3  Rd5 43. Qf4+  Kg7 44. Qc7  Kf7 45. f4  a5 46. Kh4  Ke8 47. Qb8+  Kf7 48. Qa7  Ke8 49. g5  Rf5 50. Kh5  Kf7 51. Kh6  Rxf4 52. Kh5  Rf5 1/2-1/2
